Incident energy ; 
Incident energy ; 
Incident energy ; σ(E)
1.0E-5 ; 136.3983
1.0625E-5 ; 132.328
1.125E-5 ; 128.6018
1.1875E-5 ; 125.1738
1.25E-5 ; 122.0063
1.375E-5 ; 116.3323
1.5E-5 ; 111.3833
1.625E-5 ; 107.0172
1.75E-5 ; 103.1277
1.875E-5 ; 99.63408
2.0E-5 ; 96.47344
2.1875E-5 ; 92.25079
2.375E-5 ; 88.53881
2.5625E-5 ; 85.24225
2.75E-5 ; 82.28901
2.9375E-5 ; 79.62338
3.125E-5 ; 77.20153
3.3125E-5 ; 74.98845
3.5E-5 ; 72.95577
3.875E-5 ; 69.34267
4.25E-5 ; 66.21931
4.625E-5 ; 63.48425
5.0E-5 ; 61.06321
5.3125E-5 ; 59.24487
5.625E-5 ; 57.58038
5.9375E-5 ; 56.04922
6.25E-5 ; 54.6345
6.875E-5 ; 52.10049
7.5E-5 ; 49.8906
8.125E-5 ; 47.94119
8.75E-5 ; 46.20485
9.375E-5 ; 44.64544
1.0E-4 ; 43.23484
1.0625E-4 ; 41.95082
1.125E-4 ; 40.77554
1.1875E-4 ; 39.69449
1.25E-4 ; 38.69573
1.375E-4 ; 36.907
1.5E-4 ; 35.34731
1.625E-4 ; 33.9717
1.75E-4 ; 32.74663
1.875E-4 ; 31.64658
2.0E-4 ; 30.65166
2.1875E-4 ; 29.32293
2.375E-4 ; 28.1554
2.5625E-4 ; 27.119
2.75E-4 ; 26.19094
2.9375E-4 ; 25.35363
3.125E-4 ; 24.59326
3.3125E-4 ; 23.89871
3.5E-4 ; 23.26106
3.875E-4 ; 22.12838
4.25E-4 ; 21.15009
4.625E-4 ; 20.29417
5.0E-4 ; 19.53719
5.3125E-4 ; 18.96911
5.625E-4 ; 18.44948
5.9375E-4 ; 17.97182
6.25E-4 ; 17.53081
6.875E-4 ; 16.74174
7.5E-4 ; 16.05459
8.125E-4 ; 15.44932
8.75E-4 ; 14.91099
9.375E-4 ; 14.42822
0.001 ; 13.99215
0.0010625 ; 13.59578
0.001125 ; 13.2335
0.0011875 ; 12.90075
0.00125 ; 12.59378
0.001375 ; 12.04516
0.0015 ; 11.56817
0.001625 ; 11.14867
0.00175 ; 10.77614
0.001875 ; 10.44258
0.002 ; 10.14176
0.0021875 ; 9.7414
0.002375 ; 9.391101
0.0025625 ; 9.081445
0.00275 ; 8.805319
0.0029375 ; 8.557229
0.003125 ; 8.33286
0.0033125 ; 8.128767
0.0035 ; 7.942162
0.003875 ; 7.612684
0.00425 ; 7.330418
0.004625 ; 7.085438
0.005 ; 6.870495
0.0053125 ; 6.710359
0.005625 ; 6.564835
0.0059375 ; 6.431928
0.00625 ; 6.310004
0.006875 ; 6.093902
0.0075 ; 5.90807
0.008125 ; 5.746397
0.00875 ; 5.60435
0.009375 ; 5.478483
0.01 ; 5.366131
0.010625 ; 5.265193
0.01125 ; 5.173989
0.011875 ; 5.091161
0.0125 ; 5.015594
0.01375 ; 4.882708
0.015 ; 4.769603
0.01625 ; 4.672164
0.0175 ; 4.587349
0.01875 ; 4.512864
0.02 ; 4.446941
0.021325 ; 4.38487
0.02265 ; 4.329561
0.023975 ; 4.279977
0.0253 ; 4.235281
0.02684375 ; 4.188473
0.0283875 ; 4.146508
0.031475 ; 4.074414
0.0345625 ; 4.01475
0.03765 ; 3.964591
0.0407375 ; 3.921855
0.043825 ; 3.885025
0.0469125 ; 3.852967
0.05 ; 3.824818
0.053125 ; 3.799625
0.05625 ; 3.777207
0.059375 ; 3.757133
0.0625 ; 3.739056
0.06875 ; 3.707812
0.075 ; 3.681762
0.08125 ; 3.659712
0.0875 ; 3.640808
0.09375 ; 3.624424
0.1 ; 3.610086
0.10625 ; 3.597435
0.1125 ; 3.586189
0.11875 ; 3.576127
0.125 ; 3.567071
0.1375 ; 3.551428
0.15 ; 3.538393
0.1625 ; 3.527363
0.175 ; 3.517909
0.1875 ; 3.509715
0.2 ; 3.502546
0.21875 ; 3.493328
0.2375 ; 3.485566
0.25625 ; 3.478939
0.275 ; 3.473216
0.29375 ; 3.468224
0.3125 ; 3.463831
0.33125 ; 3.459935
0.35 ; 3.456456
0.3875 ; 3.450509
0.425 ; 3.445612
0.5 ; 3.438021
0.625 ; 3.429417
0.75 ; 3.423682
0.875 ; 3.419585
1.0 ; 3.416512
1.25 ; 3.412211
1.5 ; 3.409343
1.75 ; 3.407294
2.0 ; 3.405758
2.375 ; 3.40406
2.75 ; 3.402825
3.125 ; 3.401887
3.5 ; 3.401149
4.25 ; 3.400065
5.0 ; 3.399306
6.25 ; 3.398445
7.5 ; 3.397872
8.75 ; 3.397462
10.0 ; 3.397155
12.5 ; 3.396725
15.0 ; 3.396438
17.5 ; 3.396233
20.0 ; 3.396079
23.75 ; 3.39591
27.5 ; 3.395785
31.25 ; 3.395691
35.0 ; 3.395618
42.5 ; 3.395509
50.0 ; 3.395433
62.5 ; 3.395347
75.0 ; 3.39529
87.5 ; 3.395248
100.0 ; 3.395217
125.0 ; 3.395171
150.0 ; 3.395139
175.0 ; 3.395116
200.0 ; 3.395098
237.5 ; 3.395077
275.0 ; 3.39506
312.5 ; 3.395046
350.0 ; 3.395034
425.0 ; 3.395015
500.0 ; 3.394999
625.0 ; 3.394975
750.0 ; 3.394956
875.0 ; 3.394937
1000.0 ; 3.39492
1250.0 ; 3.39489
1500.0 ; 3.394862
1750.0 ; 3.394835
2000.0 ; 3.394808
2250.0 ; 3.394708
2500.0 ; 3.394608
2750.0 ; 3.394507
3000.0 ; 3.39439
3250.0 ; 3.393155
3500.0 ; 3.391905
4000.0 ; 3.389407
4500.0 ; 3.387204
5000.0 ; 3.385007
6250.0 ; 3.380502
7500.0 ; 3.376002
8750.0 ; 3.371501
10000.0 ; 3.367008
12500.0 ; 3.360751
15000.0 ; 3.3545
17500.0 ; 3.34825
20000.0 ; 3.342004
22500.0 ; 3.33675
25000.0 ; 3.3315
27500.0 ; 3.32625
30000.0 ; 3.321002
32500.0 ; 3.31625
35000.0 ; 3.3115
40000.0 ; 3.302002
45000.0 ; 3.293499
50000.0 ; 3.285002
55000.0 ; 3.277499
60000.0 ; 3.27
65000.0 ; 3.262998
70000.0 ; 3.256
80000.0 ; 3.243
90000.0 ; 3.231
100000.0 ; 3.219999
110000.0 ; 3.209318
120000.0 ; 3.198638
130000.0 ; 3.188318
140000.0 ; 3.178
160000.0 ; 3.158636
180000.0 ; 3.140084
200000.0 ; 3.121999
225000.0 ; 3.100835
250000.0 ; 3.082
275000.0 ; 3.065151
300000.0 ; 3.050003
325000.0 ; 3.038799
350000.0 ; 3.027606
400000.0 ; 3.011999
450000.0 ; 3.000069
500000.0 ; 2.988995
550000.0 ; 2.977203
600000.0 ; 2.965996
650000.0 ; 2.955381
700000.0 ; 2.944994
750000.0 ; 2.933809
800000.0 ; 2.921995
850000.0 ; 2.909993
900000.0 ; 2.897993
950000.0 ; 2.885445
1000000.0 ; 2.872493
1200000.0 ; 2.817781
1500000.0 ; 2.729988
1750000.0 ; 2.64059
1950000.0 ; 2.559956
2000000.0 ; 2.539992
2250000.0 ; 2.441128
2450000.0 ; 2.363892
2500000.0 ; 2.344992
2750000.0 ; 2.253762
3000000.0 ; 2.159991
3270000.0 ; 2.057471
3339000.0 ; 2.03259
3339287.0 ; 2.032483
3400000.0 ; 2.009937
3500000.0 ; 1.974245
3750000.0 ; 1.891895
4000000.0 ; 1.81749
4250000.0 ; 1.752646
4500000.0 ; 1.693122
5000000.0 ; 1.584989
5500000.0 ; 1.487528
5600000.0 ; 1.469176
6000000.0 ; 1.399789
6500000.0 ; 1.320719
7000000.0 ; 1.247988
7250000.0 ; 1.213343
7500000.0 ; 1.179659
7850000.0 ; 1.135159
8000000.0 ; 1.117288
8500000.0 ; 1.064233
9000000.0 ; 1.014989
9500000.0 ; 0.9647619
9700000.0 ; 0.9449282
1.0E7 ; 0.9159888
1.05E7 ; 0.871041
1.1E7 ; 0.8297105
1.15E7 ; 0.7919975
1.175E7 ; 0.7742863
1.2E7 ; 0.7572065
1.217E7 ; 0.7457486
1.225E7 ; 0.7403601
1.25E7 ; 0.7237674
1.3E7 ; 0.6931467
1.35E7 ; 0.6672474
1.4E7 ; 0.6435662
1.41E7 ; 0.6388815
1.417E7 ; 0.635644
1.45E7 ; 0.6206731
1.5E7 ; 0.5989348
1.55E7 ; 0.5771579
1.6E7 ; 0.557237
1.65E7 ; 0.5399391
1.7E7 ; 0.5238216
1.75E7 ; 0.508782
1.8E7 ; 0.4942307
1.85E7 ; 0.4794774
1.9E7 ; 0.4653079
1.95E7 ; 0.4522771
2.0E7 ; 0.4400137
2.1E7 ; 0.4160124
2.2E7 ; 0.3934303
2.3E7 ; 0.3723207
2.4E7 ; 0.3526888
2.5E7 ; 0.3335865
2.6E7 ; 0.3159127
2.7E7 ; 0.2996064
2.8E7 ; 0.2845967
2.9E7 ; 0.2708089
3.0E7 ; 0.2581657
3.1E7 ; 0.2465953
3.2E7 ; 0.2359522
3.3E7 ; 0.2260744
3.4E7 ; 0.2168285
3.5E7 ; 0.2081049
3.6E7 ; 0.2004625
3.7E7 ; 0.1931496
3.8E7 ; 0.1861076
3.9E7 ; 0.1792892
4.0E7 ; 0.1726549
4.2E7 ; 0.1602692
4.4E7 ; 0.1491296
4.6E7 ; 0.1389937
4.63E7 ; 0.1375498
4.8E7 ; 0.1296743
5.0E7 ; 0.1210233
5.2E7 ; 0.1129642
5.3E7 ; 0.1091637
5.4E7 ; 0.1055122
5.6E7 ; 0.09860264
5.8E7 ; 0.09212536
6.0E7 ; 0.08603488
6.2E7 ; 0.08032726
6.4E7 ; 0.07500505
6.6E7 ; 0.07003791
6.8E7 ; 0.06539796
7.0E7 ; 0.06105974
7.2E7 ; 0.05699962
7.4E7 ; 0.05319605
7.6E7 ; 0.04962938
7.8E7 ; 0.04628135
8.0E7 ; 0.04313553
8.2E7 ; 0.04028305
8.4E7 ; 0.03777872
8.6E7 ; 0.03556128
8.8E7 ; 0.03358036
9.0E7 ; 0.03179334
9.2E7 ; 0.03016481
9.4E7 ; 0.02866481
9.6E7 ; 0.02726798
9.8E7 ; 0.02595276
1.0E8 ; 0.024701
1.02E8 ; 0.02351319
1.04E8 ; 0.02237458
1.06E8 ; 0.02129311
1.08E8 ; 0.02027464
1.1E8 ; 0.01932354
1.12E8 ; 0.01844278
1.14E8 ; 0.01763428
1.16E8 ; 0.01689906
1.18E8 ; 0.01623746
1.2E8 ; 0.01564889
1.22E8 ; 0.01511739
1.24E8 ; 0.01462773
1.26E8 ; 0.01417108
1.28E8 ; 0.01373963
1.29E8 ; 0.01353117
1.3E8 ; 0.0133265
1.32E8 ; 0.01293191
1.34E8 ; 0.01255807
1.36E8 ; 0.01220204
1.38E8 ; 0.01186114
1.4E8 ; 0.01153298
1.42E8 ; 0.01121798
1.44E8 ; 0.01092749
1.46E8 ; 0.01066369
1.48E8 ; 0.01042698
1.5E8 ; 0.01021766
