Incident energy ; 
Incident energy ; 
Incident energy ; σ(E)
1.0E-5 ; 0.276962
1.0625E-5 ; 0.2686926
1.125E-5 ; 0.2611223
1.1875E-5 ; 0.2541578
1.25E-5 ; 0.2477224
1.374885E-5 ; 0.2362039
1.49977E-5 ; 0.2261559
1.5E-5 ; 0.2261385
1.500489E-5 ; 0.2261017
1.500977E-5 ; 0.2260649
1.501954E-5 ; 0.2259914
1.503907E-5 ; 0.2258446
1.507813E-5 ; 0.2255519
1.515625E-5 ; 0.2249699
1.53125E-5 ; 0.2238191
1.5625E-5 ; 0.2215696
1.625E-5 ; 0.2172669
1.75E-5 ; 0.2093636
1.875E-5 ; 0.2022645
2.0E-5 ; 0.1958417
2.1875E-5 ; 0.1872605
2.375E-5 ; 0.1797167
2.5625E-5 ; 0.1730168
2.75E-5 ; 0.1670144
2.935625E-5 ; 0.1616479
3.12125E-5 ; 0.1567675
3.306875E-5 ; 0.1523041
3.4925E-5 ; 0.1482014
3.5E-5 ; 0.1480425
3.523438E-5 ; 0.1475493
3.546875E-5 ; 0.147061
3.59375E-5 ; 0.1460987
3.6875E-5 ; 0.1442296
3.875E-5 ; 0.1406969
4.25E-5 ; 0.1343464
4.625E-5 ; 0.1287848
5.0E-5 ; 0.1238613
5.3125E-5 ; 0.1201631
5.625E-5 ; 0.1167775
5.9375E-5 ; 0.1136629
6.25E-5 ; 0.1107849
6.875E-5 ; 0.1056293
7.5E-5 ; 0.1011323
8.125E-5 ; 0.09716481
8.75E-5 ; 0.09363037
9.375E-5 ; 0.09045554
1.0E-4 ; 0.08758321
1.0625E-4 ; 0.0849682
1.125E-4 ; 0.08257425
1.1875E-4 ; 0.08037188
1.25E-4 ; 0.07833683
1.374885E-4 ; 0.07469437
1.49977E-4 ; 0.07151692
1.5E-4 ; 0.07151144
1.500489E-4 ; 0.07149979
1.500977E-4 ; 0.07148816
1.501954E-4 ; 0.07146491
1.503907E-4 ; 0.07141849
1.507813E-4 ; 0.07132593
1.515625E-4 ; 0.07114187
1.53125E-4 ; 0.07077797
1.5625E-4 ; 0.07006662
1.625E-4 ; 0.06870598
1.75E-4 ; 0.06620675
1.875E-4 ; 0.06396181
2.0E-4 ; 0.06193077
2.1875E-4 ; 0.05921716
2.375E-4 ; 0.05683161
2.5625E-4 ; 0.05471292
2.75E-4 ; 0.0528148
2.935625E-4 ; 0.05111776
3.12125E-4 ; 0.04957446
3.306875E-4 ; 0.04816299
3.4925E-4 ; 0.04686561
3.5E-4 ; 0.04681537
3.523438E-4 ; 0.0466594
3.546875E-4 ; 0.04650499
3.59375E-4 ; 0.04620071
3.6875E-4 ; 0.04560964
3.875E-4 ; 0.04449251
4.25E-4 ; 0.04248431
4.625E-4 ; 0.04072559
5.0E-4 ; 0.03916864
5.3125E-4 ; 0.03799918
5.625E-4 ; 0.03692858
5.9375E-4 ; 0.03594366
6.25E-4 ; 0.03503356
6.875E-4 ; 0.03340322
7.5E-4 ; 0.03198117
8.125E-4 ; 0.03072655
8.75E-4 ; 0.02960887
9.375E-4 ; 0.02860491
0.001 ; 0.02769661
0.0010625 ; 0.02686968
0.001125 ; 0.02611266
0.0011875 ; 0.02541622
0.00125 ; 0.02477269
0.001374885 ; 0.02362086
0.00149977 ; 0.02261607
0.0015 ; 0.02261434
0.001500489 ; 0.02261066
0.001500977 ; 0.02260698
0.001501954 ; 0.02259963
0.001503907 ; 0.02258495
0.001507813 ; 0.02255568
0.001515625 ; 0.02249747
0.00153125 ; 0.0223824
0.0015625 ; 0.02215746
0.001625 ; 0.02172719
0.00175 ; 0.02093688
0.001875 ; 0.02022698
0.002 ; 0.01958472
0.0021875 ; 0.01872662
0.002375 ; 0.01797226
0.0025625 ; 0.01730228
0.00275 ; 0.01670206
0.002935625 ; 0.01616542
0.00312125 ; 0.0156774
0.003306875 ; 0.01523106
0.0034925 ; 0.01482081
0.0035 ; 0.01480492
0.003523438 ; 0.0147556
0.003546875 ; 0.01470677
0.00359375 ; 0.01461055
0.0036875 ; 0.01442364
0.003875 ; 0.01407039
0.00425 ; 0.01343536
0.004625 ; 0.01287922
0.005 ; 0.01238689
0.0053125 ; 0.01201708
0.005625 ; 0.01167854
0.0059375 ; 0.0113671
0.00625 ; 0.01107931
0.006875 ; 0.01056378
0.0075 ; 0.01011411
0.008125 ; 0.009717387
0.00875 ; 0.00936397
0.009375 ; 0.009046513
0.01 ; 0.008759307
0.01061514 ; 0.008501777
0.01123027 ; 0.008265712
0.01125 ; 0.008258463
0.01132813 ; 0.008229941
0.01140625 ; 0.008201716
0.0115625 ; 0.008146124
0.011875 ; 0.008038249
0.0125 ; 0.007834767
0.01375 ; 0.007470249
0.015 ; 0.007152301
0.01625 ; 0.006871778
0.0175 ; 0.006621868
0.01875 ; 0.006397375
0.02 ; 0.006194261
0.021325 ; 0.005998755
0.02265 ; 0.005820653
0.023975 ; 0.005657515
0.0253 ; 0.005507356
0.02680717 ; 0.005350264
0.02831433 ; 0.005205879
0.03132865 ; 0.004949011
0.03434298 ; 0.004726745
0.0373573 ; 0.004531964
0.04037163 ; 0.004359442
0.04338595 ; 0.004205243
0.04640027 ; 0.004066336
0.04941459 ; 0.003940348
0.05 ; 0.003917211
0.0515625 ; 0.003857398
0.053125 ; 0.003800245
0.05625 ; 0.003693166
0.059375 ; 0.003594657
0.0625 ; 0.003503633
0.06875 ; 0.003340583
0.075 ; 0.003198381
0.08125 ; 0.00307293
0.0875 ; 0.002961166
0.09375 ; 0.002860753
0.1 ; 0.002769879
0.10625 ; 0.002687118
0.1125 ; 0.002611327
0.11875 ; 0.002541584
0.125 ; 0.002477127
0.1374887 ; 0.002361742
0.1499773 ; 0.002261087
0.15 ; 0.002260916
0.1500489 ; 0.002260547
0.1500977 ; 0.002260178
0.1501954 ; 0.002259442
0.1503907 ; 0.002257972
0.1507813 ; 0.002255039
0.1515625 ; 0.002249209
0.153125 ; 0.002237683
0.15625 ; 0.002215151
0.1625 ; 0.002172056
0.175 ; 0.002092916
0.1875 ; 0.002021863
0.2 ; 0.001957638
0.21875 ; 0.001871993
0.2375 ; 0.001796913
0.25625 ; 0.001730334
0.275 ; 0.001670607
0.2935626 ; 0.001617031
0.3121251 ; 0.001568151
0.3306877 ; 0.001523357
0.3492502 ; 0.001482152
0.35 ; 0.001480557
0.3523438 ; 0.001475603
0.3546875 ; 0.001470698
0.359375 ; 0.001461033
0.36875 ; 0.001442261
0.3875 ; 0.001406795
0.425 ; 0.001343147
0.5 ; 0.0012389
0.625 ; 0.001107893
0.75 ; 0.001011259
0.875 ; 9.365122E-4
1.0 ; 8.75988E-4
1.25 ; 7.833613E-4
1.499773 ; 7.150123E-4
1.5 ; 7.14958E-4
1.500489 ; 7.148413E-4
1.500977 ; 7.147248E-4
1.501954 ; 7.144919E-4
1.503907 ; 7.140268E-4
1.507813 ; 7.130996E-4
1.515625 ; 7.112563E-4
1.53125 ; 7.076132E-4
1.5625 ; 7.004941E-4
1.625 ; 6.868666E-4
1.75 ; 6.61833E-4
2.0 ; 6.190187E-4
2.375 ; 5.679944E-4
2.75 ; 5.286967E-4
3.121251 ; 4.958912E-4
3.492502 ; 4.686047E-4
3.5 ; 4.680993E-4
3.523438 ; 4.665353E-4
3.546875 ; 4.649947E-4
3.59375 ; 4.619769E-4
3.6875 ; 4.561289E-4
3.875 ; 4.448639E-4
4.25 ; 4.247428E-4
5.0 ; 3.916653E-4
6.25 ; 3.504063E-4
7.5 ; 3.196986E-4
8.75 ; 2.960249E-4
10.0 ; 2.768261E-4
12.5 ; 2.475642E-4
15.0 ; 2.259669E-4
15.00252 ; 2.259479E-4
15.01228 ; 2.258743E-4
15.02204 ; 2.258009E-4
15.04155 ; 2.256547E-4
15.08057 ; 2.25364E-4
15.15862 ; 2.247895E-4
15.31471 ; 2.236632E-4
15.62689 ; 2.214576E-4
16.25126 ; 2.171062E-4
17.5 ; 2.092513E-4
20.0 ; 1.961545E-4
22.5 ; 1.847823E-4
25.0 ; 1.751191E-4
27.5 ; 1.671852E-4
30.0 ; 1.598322E-4
32.5 ; 1.537256E-4
35.0 ; 1.480089E-4
40.0 ; 1.384312E-4
45.0 ; 1.304742E-4
50.0 ; 1.237582E-4
62.5 ; 1.106858E-4
68.67491 ; 1.055881E-4
68.75 ; 1.055304E-4
75.0 ; 1.010424E-4
87.5 ; 9.364545E-5
100.0 ; 8.763132E-5
125.0 ; 7.834219E-5
150.0 ; 7.149395E-5
175.0 ; 6.616387E-5
200.0 ; 6.188039E-5
225.0 ; 5.835464E-5
250.0 ; 5.541022E-5
275.0 ; 5.286059E-5
300.0 ; 5.051696E-5
325.0 ; 4.863112E-5
350.0 ; 4.677402E-5
400.0 ; 4.375702E-5
450.0 ; 4.12587E-5
500.0 ; 3.916148E-5
625.0 ; 3.506146E-5
750.0 ; 3.197382E-5
875.0 ; 2.96111E-5
1000.0 ; 2.768311E-5
1250.0 ; 2.494479E-5
1500.0 ; 2.291515E-5
1750.0 ; 2.1279E-5
2000.0 ; 1.997678E-5
2250.0 ; 1.891283E-5
2500.0 ; 1.800158E-5
2750.0 ; 1.722527E-5
3000.0 ; 1.650063E-5
3250.0 ; 1.588222E-5
3500.0 ; 1.527047E-5
4000.0 ; 1.427835E-5
4500.0 ; 1.345709E-5
5000.0 ; 1.276779E-5
6250.0 ; 1.142124E-5
7500.0 ; 1.040787E-5
8750.0 ; 9.633007E-6
10000.0 ; 9.0113E-6
10429.36 ; 1.056868E-5
10858.72 ; 1.233078E-5
11288.08 ; 1.430351E-5
11717.43 ; 1.650044E-5
12146.79 ; 1.893553E-5
12576.14 ; 2.162178E-5
13005.5 ; 2.457144E-5
13434.85 ; 2.779783E-5
13978.11 ; 3.238643E-5
14521.36 ; 3.746866E-5
15064.62 ; 4.309601E-5
15607.87 ; 4.931082E-5
16151.13 ; 5.616419E-5
16694.38 ; 6.383279E-5
17237.63 ; 7.201228E-5
17780.88 ; 8.106808E-5
18744.83 ; 9.926826E-5
19226.8 ; 1.094523E-4
19467.79 ; 1.146676E-4
19528.04 ; 1.160324E-4
19543.1 ; 1.177113E-4
19558.16 ; 1.237251E-4
19588.28 ; 1.424098E-4
19618.41 ; 1.642531E-4
19633.47 ; 1.7698E-4
19648.53 ; 1.928743E-4
19678.65 ; 2.32009E-4
19708.77 ; 2.79634E-4
19724.94 ; 3.121265E-4
19733.02 ; 3.340129E-4
19741.1 ; 3.606302E-4
19757.26 ; 4.240796E-4
19773.42 ; 4.988178E-4
19789.58 ; 5.866982E-4
19805.74 ; 6.905146E-4
19821.9 ; 8.120122E-4
19838.06 ; 9.549549E-4
19847.65 ; 0.001053721
19857.23 ; 0.001176417
19862.03 ; 0.001256527
19866.82 ; 0.001354615
19871.61 ; 0.001472913
19876.4 ; 0.001611206
19881.2 ; 0.001768606
19885.99 ; 0.001943708
19895.57 ; 0.002350336
19905.15 ; 0.002843395
19909.94 ; 0.00312971
19914.73 ; 0.003452285
19919.87 ; 0.003858957
19925.01 ; 0.004367086
19927.58 ; 0.00467658
19930.15 ; 0.005033618
19932.72 ; 0.005446032
19935.28 ; 0.005919022
19937.85 ; 0.006462659
19940.42 ; 0.00708112
19942.99 ; 0.007780582
19945.55 ; 0.008565452
19948.12 ; 0.009452557
19950.69 ; 0.01045468
19953.26 ; 0.01159447
19955.82 ; 0.01289788
19959.02 ; 0.01482649
19962.22 ; 0.01718372
19965.42 ; 0.02008992
19968.62 ; 0.02367122
19971.82 ; 0.02803892
19975.02 ; 0.03326138
19978.22 ; 0.03932879
19981.42 ; 0.04611299
19986.07 ; 0.05662369
19990.71 ; 0.06646912
19993.04 ; 0.07053236
19995.36 ; 0.07364243
19997.68 ; 0.07560119
20000.0 ; 0.07626408
20003.06 ; 0.07508548
20006.11 ; 0.07174391
20009.16 ; 0.06665138
20012.21 ; 0.06037814
20018.32 ; 0.04662057
20021.37 ; 0.04010388
20024.42 ; 0.03421662
20027.84 ; 0.02851747
20031.26 ; 0.02379583
20034.68 ; 0.01997367
20038.09 ; 0.01692376
20041.51 ; 0.01447523
20044.93 ; 0.0124943
20048.35 ; 0.0108631
20051.76 ; 0.009498905
20054.84 ; 0.008443749
20057.91 ; 0.007531418
20060.99 ; 0.006738935
20064.06 ; 0.006059599
20067.14 ; 0.005478758
20070.21 ; 0.004989412
20073.28 ; 0.004577275
20076.35 ; 0.004228932
20082.5 ; 0.003670359
20088.65 ; 0.003228202
20094.8 ; 0.002853432
20100.94 ; 0.002526059
20106.62 ; 0.002257453
20112.3 ; 0.002017704
20117.98 ; 0.001804252
20123.66 ; 0.001616261
20129.34 ; 0.001454796
20135.02 ; 0.001321468
20140.7 ; 0.001215466
20146.38 ; 0.001131743
20157.74 ; 0.001002298
20169.1 ; 8.940529E-4
20180.46 ; 7.976384E-4
20191.81 ; 7.117471E-4
20210.81 ; 5.88673E-4
20229.8 ; 4.869149E-4
20248.8 ; 4.026872E-4
20258.3 ; 3.66691E-4
20267.79 ; 3.356174E-4
20277.29 ; 3.108235E-4
20286.79 ; 2.913088E-4
20305.78 ; 2.58756E-4
20324.78 ; 2.302617E-4
20343.77 ; 2.050311E-4
20357.55 ; 1.888322E-4
20371.33 ; 1.75368E-4
20398.89 ; 1.537978E-4
20426.45 ; 1.352212E-4
20440.23 ; 1.269437E-4
20454.0 ; 1.207017E-4
20471.25 ; 1.178451E-4
20488.5 ; 1.169291E-4
20522.99 ; 1.152583E-4
20591.97 ; 1.119174E-4
20729.94 ; 1.054606E-4
21005.88 ; 9.388282E-5
21281.82 ; 8.365588E-5
21557.75 ; 7.460877E-5
21833.69 ; 6.673309E-5
22109.63 ; 5.972966E-5
22385.57 ; 5.351716E-5
22661.5 ; 4.813257E-5
22922.65 ; 4.341293E-5
23267.66 ; 3.805501E-5
23612.66 ; 3.341758E-5
23880.34 ; 3.028101E-5
24148.02 ; 2.745438E-5
24415.7 ; 2.490996E-5
24683.37 ; 2.262249E-5
25218.72 ; 1.871414E-5
25754.07 ; 1.553681E-5
26311.77 ; 1.288454E-5
26590.62 ; 1.172646E-5
26869.47 ; 1.068846E-5
27416.88 ; 8.946416E-6
27817.76 ; 7.879718E-6
28218.63 ; 6.937519E-6
28481.28 ; 6.393078E-6
28895.98 ; 5.628593E-6
29310.67 ; 4.999712E-6
30140.06 ; 4.9233E-6
31798.84 ; 4.770683E-6
31873.5 ; 4.764863E-6
32156.73 ; 4.74306E-6
32439.96 ; 4.721257E-6
33006.41 ; 4.677652E-6
34139.32 ; 4.590442E-6
36405.13 ; 4.416023E-6
40936.75 ; 4.125627E-6
50000.0 ; 3.684899E-6
66748.65 ; 3.166254E-6
67456.0 ; 3.151683E-6
69490.0 ; 3.10988E-6
71524.0 ; 3.068078E-6
75592.0 ; 2.984663E-6
83728.0 ; 2.844465E-6
100000.0 ; 2.617237E-6
120000.0 ; 2.418655E-6
130000.0 ; 2.345737E-6
140000.0 ; 2.282315E-6
160000.0 ; 2.164506E-6
180000.0 ; 2.069203E-6
200000.0 ; 2.008432E-6
220000.0 ; 1.979346E-6
239010.0 ; 1.95178E-6
240000.0 ; 1.956187E-6
260000.0 ; 2.046828E-6
280000.0 ; 2.137469E-6
300000.0 ; 2.228302E-6
320000.0 ; 2.576727E-6
340000.0 ; 3.264351E-6
360000.0 ; 4.081039E-6
365000.0 ; 4.563169E-6
370000.0 ; 5.10666E-6
380000.0 ; 6.323572E-6
385000.0 ; 7.427615E-6
390000.0 ; 8.713428E-6
395000.0 ; 1.019542E-5
400000.0 ; 1.189492E-5
402500.0 ; 1.332584E-5
405000.0 ; 1.492846E-5
410000.0 ; 1.867507E-5
412500.0 ; 2.086534E-5
415000.0 ; 2.332878E-5
420000.0 ; 2.896748E-5
425000.0 ; 2.847965E-5
430000.0 ; 2.79691E-5
435000.0 ; 2.745855E-5
440000.0 ; 2.692882E-5
442500.0 ; 2.403774E-5
445000.0 ; 2.146375E-5
450000.0 ; 1.71244E-5
452500.0 ; 1.53099E-5
455000.0 ; 1.371629E-5
457500.0 ; 1.22716E-5
460000.0 ; 1.098574E-5
465000.0 ; 9.378215E-6
470000.0 ; 7.983074E-6
470049.9 ; 7.970176E-6
470204.6 ; 7.932375E-6
470359.3 ; 7.89503E-6
470668.7 ; 7.820342E-6
471287.5 ; 7.670965E-6
472525.0 ; 7.372766E-6
475000.0 ; 6.833593E-6
480000.0 ; 5.841759E-6
484923.7 ; 5.153555E-6
485000.0 ; 5.143815E-6
485312.5 ; 5.105051E-6
485625.0 ; 5.066304E-6
486250.0 ; 4.988809E-6
487500.0 ; 4.83382E-6
490000.0 ; 4.543739E-6
495000.0 ; 4.008388E-6
500000.0 ; 3.540337E-6
510000.0 ; 3.131472E-6
520000.0 ; 2.77687E-6
540000.0 ; 2.198773E-6
560000.0 ; 1.878979E-6
580000.0 ; 1.730687E-6
600000.0 ; 1.598655E-6
620000.0 ; 1.480553E-6
640000.0 ; 1.374521E-6
660000.0 ; 1.279025E-6
680000.0 ; 1.215062E-6
700000.0 ; 1.179282E-6
720000.0 ; 1.145542E-6
740000.0 ; 1.113659E-6
760000.0 ; 1.089369E-6
780000.0 ; 1.072631E-6
800000.0 ; 1.056561E-6
820000.0 ; 1.041137E-6
840000.0 ; 1.031678E-6
860000.0 ; 1.02864E-6
880000.0 ; 1.025702E-6
900000.0 ; 1.032211E-6
920000.0 ; 1.047386E-6
940000.0 ; 1.082532E-6
960000.0 ; 1.164644E-6
980000.0 ; 1.468995E-6
990000.0 ; 1.825981E-6
1000000.0 ; 2.258162E-6
1005000.0 ; 2.191485E-6
1010000.0 ; 2.123199E-6
1011985.0 ; 2.096132E-6
1012000.0 ; 2.095939E-6
1014000.0 ; 2.071665E-6
1015500.0 ; 2.053483E-6
1016250.0 ; 2.044392E-6
1017000.0 ; 2.0353E-6
1018500.0 ; 2.017118E-6
1020000.0 ; 1.998936E-6
1025000.0 ; 1.938328E-6
1026250.0 ; 1.923177E-6
1027500.0 ; 1.908025E-6
1030000.0 ; 1.877721E-6
1040000.0 ; 1.766665E-6
1049590.0 ; 1.664998E-6
1050000.0 ; 1.661037E-6
1051563.0 ; 1.646043E-6
1053125.0 ; 1.631059E-6
1056250.0 ; 1.601081E-6
1062500.0 ; 1.541638E-6
1075000.0 ; 1.433876E-6
1100000.0 ; 1.238691E-6
1140000.0 ; 1.480438E-6
1150000.0 ; 1.544941E-6
1160000.0 ; 1.609443E-6
1180000.0 ; 1.75479E-6
1200000.0 ; 1.901591E-6
1220000.0 ; 2.149669E-6
1240000.0 ; 2.420785E-6
1250000.0 ; 2.572183E-6
1260000.0 ; 2.728456E-6
1265000.0 ; 2.806593E-6
1270000.0 ; 2.884729E-6
1280000.0 ; 3.062446E-6
1290000.0 ; 3.242708E-6
1300000.0 ; 3.421452E-6
1320000.0 ; 2.83024E-6
1340000.0 ; 2.34223E-6
1350000.0 ; 2.138472E-6
1360000.0 ; 1.94786E-6
1380000.0 ; 1.62292E-6
1400000.0 ; 1.353222E-6
1450000.0 ; 1.172843E-6
1500000.0 ; 1.018717E-6
1550000.0 ; 1.06041E-6
1600000.0 ; 1.102476E-6
1650000.0 ; 1.553752E-6
1700000.0 ; 2.168362E-6
1710000.0 ; 2.452555E-6
1720000.0 ; 2.768762E-6
1730000.0 ; 3.121996E-6
1740000.0 ; 3.516566E-6
1750000.0 ; 3.966036E-6
1760000.0 ; 4.46088E-6
1770000.0 ; 5.016762E-6
1780000.0 ; 5.645313E-6
1790000.0 ; 6.339107E-6
1800000.0 ; 7.105178E-6
1810000.0 ; 6.008089E-6
1820000.0 ; 5.07402E-6
1830000.0 ; 4.296539E-6
1840000.0 ; 3.634639E-6
1850000.0 ; 3.073792E-6
1856250.0 ; 2.771376E-6
1862500.0 ; 2.499269E-6
1875000.0 ; 2.036027E-6
1900000.0 ; 1.357239E-6
1950000.0 ; 1.084556E-6
2000000.0 ; 8.694447E-7
2050000.0 ; 8.644755E-7
2100000.0 ; 8.59658E-7
2150000.0 ; 8.548405E-7
2200000.0 ; 8.50023E-7
2224059.0 ; 9.854469E-7
2245326.0 ; 1.12153E-6
2250000.0 ; 1.154989E-6
2264101.0 ; 1.25593E-6
2280658.0 ; 1.38668E-6
2295245.0 ; 1.5122E-6
2300000.0 ; 1.557924E-6
2319350.0 ; 1.743993E-6
2319354.0 ; 1.744031E-6
2320000.0 ; 1.750243E-6
2320997.0 ; 1.75983E-6
2340000.0 ; 1.966365E-6
2340501.0 ; 1.97181E-6
2350000.0 ; 2.084999E-6
2355236.0 ; 2.14739E-6
2360000.0 ; 2.210075E-6
2377513.0 ; 2.44051E-6
2380000.0 ; 2.477352E-6
2400000.0 ; 2.77363E-6
2401547.0 ; 2.795024E-6
2403046.0 ; 2.815755E-6
2404500.0 ; 2.835863E-6
2405909.0 ; 2.855349E-6
2407275.0 ; 2.87424E-6
2408599.0 ; 2.892551E-6
2409882.0 ; 2.910294E-6
2411125.0 ; 2.927484E-6
2412331.0 ; 2.944163E-6
2413499.0 ; 2.960316E-6
2414632.0 ; 2.975985E-6
2415729.0 ; 2.991156E-6
2416793.0 ; 3.005871E-6
2417824.0 ; 3.020129E-6
2418823.0 ; 3.033945E-6
2419791.0 ; 3.047332E-6
2420000.0 ; 3.050222E-6
2420729.0 ; 3.060304E-6
2421639.0 ; 3.072889E-6
2422520.0 ; 3.085073E-6
2423374.0 ; 3.096883E-6
2424133.0 ; 3.10738E-6
2424202.0 ; 3.108431E-6
2425806.0 ; 3.132874E-6
2427311.0 ; 3.155807E-6
2428723.0 ; 3.177324E-6
2430047.0 ; 3.197499E-6
2431290.0 ; 3.216441E-6
2432455.0 ; 3.234193E-6
2433548.0 ; 3.250849E-6
2434573.0 ; 3.266468E-6
2435534.0 ; 3.281112E-6
2436436.0 ; 3.294857E-6
2437281.0 ; 3.307733E-6
2438867.0 ; 3.331901E-6
2440000.0 ; 3.349166E-6
2440256.0 ; 3.353067E-6
2441472.0 ; 3.371597E-6
2442536.0 ; 3.387811E-6
2443468.0 ; 3.402013E-6
2445099.0 ; 3.426867E-6
2445449.0 ; 3.4322E-6
2446324.0 ; 3.446715E-6
2447242.0 ; 3.461943E-6
2448621.0 ; 3.484818E-6
2450000.0 ; 3.507693E-6
2456195.0 ; 3.610456E-6
2460000.0 ; 3.673574E-6
2461628.0 ; 3.70058E-6
2464254.0 ; 3.74414E-6
2466392.0 ; 3.78372E-6
2470568.0 ; 3.861028E-6
2477894.0 ; 3.99665E-6
2480000.0 ; 4.035638E-6
2483402.0 ; 4.098617E-6
2487541.0 ; 4.17524E-6
2493763.0 ; 4.290425E-6
2497511.0 ; 4.35981E-6
2500000.0 ; 4.411818E-6
2506196.0 ; 4.541284E-6
2510000.0 ; 4.620769E-6
2511630.0 ; 4.654828E-6
2520000.0 ; 4.82972E-6
2521168.0 ; 4.854126E-6
2522748.0 ; 4.88714E-6
2528345.0 ; 5.015213E-6
2530000.0 ; 5.053083E-6
2533742.0 ; 5.138709E-6
2540000.0 ; 5.281908E-6
2541843.0 ; 5.32408E-6
2541858.0 ; 5.324459E-6
2550000.0 ; 5.529949E-6
2555000.0 ; 5.65614E-6
2558000.0 ; 5.731855E-6
2560000.0 ; 5.782332E-6
2563000.0 ; 5.858047E-6
2567000.0 ; 5.959E-6
2570000.0 ; 6.034715E-6
2570757.0 ; 6.05382E-6
2574879.0 ; 6.17078E-6
2580000.0 ; 6.316087E-6
2590000.0 ; 6.599833E-6
2600000.0 ; 6.88358E-6
2606198.0 ; 6.427429E-6
2610000.0 ; 6.147615E-6
2612070.0 ; 5.99527E-6
2617080.0 ; 5.674237E-6
2620000.0 ; 5.487128E-6
2623437.0 ; 5.26689E-6
2625271.0 ; 5.163676E-6
2631432.0 ; 4.816945E-6
2634139.0 ; 4.6646E-6
2640000.0 ; 4.372522E-6
2640700.0 ; 4.337638E-6
2644211.0 ; 4.16267E-6
2650000.0 ; 3.905286E-6
2653689.0 ; 3.74127E-6
2660000.0 ; 3.48912E-6
2662605.0 ; 3.38504E-6
2670991.0 ; 3.08194E-6
2678877.0 ; 2.82247E-6
2680000.0 ; 2.788636E-6
2686291.0 ; 2.5991E-6
2693261.0 ; 2.40578E-6
2700000.0 ; 2.239011E-6
2706377.0 ; 2.0812E-6
2717907.0 ; 1.83333E-6
2724885.0 ; 1.700674E-6
2728035.0 ; 1.64079E-6
2736929.0 ; 1.48897E-6
2744734.0 ; 1.3677E-6
2750000.0 ; 1.295149E-6
2758448.0 ; 1.17876E-6
2768778.0 ; 1.05439E-6
2776550.0 ; 9.69801E-7
2788250.0 ; 8.55471E-7
2800000.0 ; 7.54619E-7
2850000.0 ; 7.072346E-7
2898275.0 ; 6.61485E-7
2900000.0 ; 6.601006E-7
2950000.0 ; 6.199733E-7
3000000.0 ; 5.79846E-7
3050000.0 ; 5.77698E-7
3100000.0 ; 5.7555E-7
3150000.0 ; 5.73402E-7
3200000.0 ; 5.71254E-7
3224903.0 ; 6.052552E-7
3248869.0 ; 6.37977E-7
3250000.0 ; 6.397177E-7
3274904.0 ; 6.780468E-7
3300000.0 ; 7.166714E-7
3323575.0 ; 7.52955E-7
3324906.0 ; 7.553183E-7
3350000.0 ; 7.998752E-7
3374907.0 ; 8.440999E-7
3400000.0 ; 8.88655E-7
3420000.0 ; 8.921627E-7
3424909.0 ; 8.930237E-7
3440000.0 ; 8.956704E-7
3450000.0 ; 8.974243E-7
3460000.0 ; 8.991781E-7
3474910.0 ; 9.017931E-7
3480000.0 ; 9.026858E-7
3500000.0 ; 9.061935E-7
3520000.0 ; 9.097012E-7
3530000.0 ; 9.114551E-7
3540000.0 ; 9.132089E-7
3550000.0 ; 9.149628E-7
3560000.0 ; 9.167166E-7
3574912.0 ; 9.193319E-7
3580000.0 ; 9.202243E-7
3600000.0 ; 9.23732E-7
3620000.0 ; 8.832703E-7
3640000.0 ; 8.428086E-7
3648991.0 ; 8.24619E-7
3650000.0 ; 8.227928E-7
3660000.0 ; 8.046941E-7
3680000.0 ; 7.684967E-7
3686171.0 ; 7.57328E-7
3700000.0 ; 7.35101E-7
3742653.0 ; 6.66546E-7
3750000.0 ; 6.563098E-7
3800000.0 ; 5.86647E-7
3850000.0 ; 5.524455E-7
3898718.0 ; 5.19121E-7
3900000.0 ; 5.183647E-7
3950000.0 ; 4.888663E-7
4000000.0 ; 4.59368E-7
4050000.0 ; 4.559448E-7
4100000.0 ; 4.525215E-7
4150000.0 ; 4.490983E-7
4200000.0 ; 4.45675E-7
4250000.0 ; 4.615583E-7
4300000.0 ; 4.774415E-7
4310000.0 ; 4.806182E-7
4320000.0 ; 4.837948E-7
4330000.0 ; 4.869715E-7
4340000.0 ; 4.901481E-7
4350000.0 ; 4.933248E-7
4360000.0 ; 4.965014E-7
4370000.0 ; 4.996781E-7
4380000.0 ; 5.028547E-7
4390000.0 ; 5.060314E-7
4400000.0 ; 5.09208E-7
4410000.0 ; 5.343667E-7
4420000.0 ; 5.595253E-7
4424516.0 ; 5.70887E-7
4430000.0 ; 5.861628E-7
4440000.0 ; 6.14018E-7
4446080.0 ; 6.30954E-7
4450000.0 ; 6.42891E-7
4460000.0 ; 6.733426E-7
4465035.0 ; 6.88675E-7
4470000.0 ; 7.056402E-7
4480000.0 ; 7.398099E-7
4490000.0 ; 7.739795E-7
4498400.0 ; 8.02682E-7
4500000.0 ; 8.0889E-7
4510000.0 ; 8.476898E-7
4520000.0 ; 8.864896E-7
4523588.0 ; 9.00411E-7
4530000.0 ; 9.277807E-7
4540000.0 ; 9.704658E-7
4542571.0 ; 9.814401E-7
4550000.0 ; 1.016587E-6
4560000.0 ; 1.063897E-6
4570000.0 ; 1.111206E-6
4571195.0 ; 1.11686E-6
4580000.0 ; 1.163965E-6
4590000.0 ; 1.217462E-6
4600000.0 ; 1.27096E-6
4610000.0 ; 1.293334E-6
4620000.0 ; 1.315707E-6
4630000.0 ; 1.338081E-6
4640000.0 ; 1.360455E-6
4649205.0 ; 1.38105E-6
4650000.0 ; 1.382998E-6
4660000.0 ; 1.407499E-6
4670000.0 ; 1.432E-6
4680000.0 ; 1.456502E-6
4690000.0 ; 1.481003E-6
4700000.0 ; 1.505504E-6
4710000.0 ; 1.530006E-6
4720000.0 ; 1.554507E-6
4724001.0 ; 1.56431E-6
4730000.0 ; 1.580696E-6
4740000.0 ; 1.608011E-6
4750000.0 ; 1.635326E-6
4760000.0 ; 1.662641E-6
4770000.0 ; 1.689956E-6
4780000.0 ; 1.71727E-6
4790000.0 ; 1.744585E-6
4800000.0 ; 1.7719E-6
4810000.0 ; 1.829521E-6
4820000.0 ; 1.887143E-6
4830000.0 ; 1.944764E-6
4840000.0 ; 2.002385E-6
4849237.0 ; 2.05561E-6
4850000.0 ; 2.06057E-6
4852130.0 ; 2.074417E-6
4860000.0 ; 2.12558E-6
4870000.0 ; 2.19059E-6
4880000.0 ; 2.2556E-6
4886496.0 ; 2.29783E-6
4890000.0 ; 2.322769E-6
4900000.0 ; 2.39394E-6
4906222.0 ; 2.438223E-6
4910000.0 ; 2.465112E-6
4911673.0 ; 2.477019E-6
4914628.0 ; 2.49805E-6
4916448.0 ; 2.512331E-6
4920000.0 ; 2.540202E-6
4920629.0 ; 2.545138E-6
4927955.0 ; 2.602623E-6
4930000.0 ; 2.618669E-6
4933457.0 ; 2.645795E-6
4937588.0 ; 2.67821E-6
4940000.0 ; 2.697136E-6
4943790.0 ; 2.726875E-6
4950000.0 ; 2.775603E-6
4957130.0 ; 2.83155E-6
4960000.0 ; 2.856858E-6
4970000.0 ; 2.945038E-6
4974937.0 ; 2.988573E-6
4980000.0 ; 3.033219E-6
4990000.0 ; 3.121399E-6
5000000.0 ; 3.20958E-6
5010000.0 ; 2.967538E-6
5012271.0 ; 2.91257E-6
5012453.0 ; 2.90857E-6
5020000.0 ; 2.742716E-6
5021814.0 ; 2.702851E-6
5023803.0 ; 2.65914E-6
5030000.0 ; 2.534725E-6
5034638.0 ; 2.44161E-6
5035887.0 ; 2.418575E-6
5040000.0 ; 2.342718E-6
5044818.0 ; 2.25386E-6
5050000.0 ; 2.168857E-6
5060000.0 ; 2.004822E-6
5062454.0 ; 1.964567E-6
5063959.0 ; 1.93988E-6
5070000.0 ; 1.854115E-6
5071814.0 ; 1.828361E-6
5080000.0 ; 1.712143E-6
5080768.0 ; 1.70124E-6
5085887.0 ; 1.637187E-6
5090000.0 ; 1.585723E-6
5095521.0 ; 1.51664E-6
5100000.0 ; 1.466462E-6
5108465.0 ; 1.37163E-6
5110000.0 ; 1.356018E-6
5112454.0 ; 1.331058E-6
5119818.0 ; 1.25616E-6
5120000.0 ; 1.254459E-6
5121815.0 ; 1.237498E-6
5128847.0 ; 1.171784E-6
5129773.0 ; 1.16313E-6
5130000.0 ; 1.161226E-6
5139412.0 ; 1.082263E-6
5140000.0 ; 1.07733E-6
5147240.0 ; 1.01659E-6
5150000.0 ; 9.960782E-7
5160000.0 ; 9.217601E-7
5160380.0 ; 9.18936E-7
5162455.0 ; 9.053793E-7
5170000.0 ; 8.560854E-7
5180000.0 ; 7.907521E-7
5180152.0 ; 7.89759E-7
5181193.0 ; 7.839363E-7
5190000.0 ; 7.346751E-7
5200000.0 ; 6.78741E-7
5210000.0 ; 6.85577E-7
5220000.0 ; 6.924131E-7
5230000.0 ; 6.992491E-7
5240000.0 ; 7.060851E-7
5250000.0 ; 7.129212E-7
5260000.0 ; 7.197572E-7
5262455.0 ; 7.214354E-7
5270000.0 ; 7.265932E-7
5280000.0 ; 7.334293E-7
5281194.0 ; 7.342455E-7
5290000.0 ; 7.402653E-7
5299056.0 ; 7.46456E-7
5300000.0 ; 7.471524E-7
5310000.0 ; 7.5453E-7
5312456.0 ; 7.563419E-7
5320000.0 ; 7.619076E-7
5330000.0 ; 7.692851E-7
5331195.0 ; 7.701667E-7
5340000.0 ; 7.766627E-7
5350000.0 ; 7.840402E-7
5360000.0 ; 7.914178E-7
5362456.0 ; 7.932297E-7
5370000.0 ; 7.987953E-7
5380000.0 ; 8.061729E-7
5381195.0 ; 8.070545E-7
5390000.0 ; 8.135504E-7
5400000.0 ; 8.20928E-7
5410000.0 ; 8.667149E-7
5420000.0 ; 9.125017E-7
5424604.0 ; 9.33582E-7
5430000.0 ; 9.613327E-7
5440000.0 ; 1.012761E-6
5446224.0 ; 1.04477E-6
5450000.0 ; 1.066264E-6
5460000.0 ; 1.123186E-6
5465213.0 ; 1.15286E-6
5470000.0 ; 1.182646E-6
5480000.0 ; 1.24487E-6
5480270.0 ; 1.24655E-6
5481882.0 ; 1.25658E-6
5490000.0 ; 1.31324E-6
5500000.0 ; 1.383036E-6
5501555.0 ; 1.393889E-6
5503063.0 ; 1.404415E-6
5504524.0 ; 1.414612E-6
5505939.0 ; 1.424488E-6
5507311.0 ; 1.434064E-6
5508640.0 ; 1.44334E-6
5509928.0 ; 1.452329E-6
5510000.0 ; 1.452832E-6
5511175.0 ; 1.461033E-6
5511176.0 ; 1.46104E-6
5512385.0 ; 1.47062E-6
5513556.0 ; 1.479898E-6
5514691.0 ; 1.488892E-6
5515791.0 ; 1.497608E-6
5516857.0 ; 1.506055E-6
5517890.0 ; 1.51424E-6
5518891.0 ; 1.522171E-6
5519860.0 ; 1.529849E-6
5520000.0 ; 1.530959E-6
5521739.0 ; 1.544738E-6
5523501.0 ; 1.5587E-6
5525153.0 ; 1.57179E-6
5526703.0 ; 1.584071E-6
5528156.0 ; 1.595585E-6
5529519.0 ; 1.606385E-6
5530000.0 ; 1.610196E-6
5530797.0 ; 1.616511E-6
5531995.0 ; 1.626004E-6
5533119.0 ; 1.63491E-6
5533249.0 ; 1.63594E-6
5534172.0 ; 1.643984E-6
5535160.0 ; 1.652595E-6
5537013.0 ; 1.668745E-6
5538635.0 ; 1.682881E-6
5540000.0 ; 1.694778E-6
5540054.0 ; 1.695249E-6
5541296.0 ; 1.706073E-6
5542383.0 ; 1.715547E-6
5543335.0 ; 1.723844E-6
5545000.0 ; 1.738355E-6
5546250.0 ; 1.74925E-6
5548124.0 ; 1.765583E-6
5549862.0 ; 1.78073E-6
5550000.0 ; 1.782063E-6
5551555.0 ; 1.79708E-6
5553063.0 ; 1.811643E-6
5554524.0 ; 1.825753E-6
5555939.0 ; 1.839418E-6
5557311.0 ; 1.852668E-6
5558640.0 ; 1.865502E-6
5559928.0 ; 1.877941E-6
5560000.0 ; 1.878636E-6
5561176.0 ; 1.889993E-6
5562385.0 ; 1.901669E-6
5563557.0 ; 1.912988E-6
5564692.0 ; 1.923949E-6
5565792.0 ; 1.934572E-6
5566858.0 ; 1.944867E-6
5567890.0 ; 1.954833E-6
5568891.0 ; 1.9645E-6
5570000.0 ; 1.97521E-6
5570830.0 ; 1.983226E-6
5572649.0 ; 2.000792E-6
5574354.0 ; 2.017258E-6
5574874.0 ; 2.02228E-6
5575954.0 ; 2.034071E-6
5577454.0 ; 2.050447E-6
5578860.0 ; 2.065797E-6
5580000.0 ; 2.078242E-6
5580179.0 ; 2.080197E-6
5581416.0 ; 2.093701E-6
5582575.0 ; 2.106355E-6
5583663.0 ; 2.118233E-6
5584682.0 ; 2.129358E-6
5586595.0 ; 2.150243E-6
5588269.0 ; 2.168518E-6
5589734.0 ; 2.184512E-6
5590000.0 ; 2.187416E-6
5591016.0 ; 2.198508E-6
5592138.0 ; 2.210758E-6
5594103.0 ; 2.23221E-6
5595576.0 ; 2.248292E-6
5596682.0 ; 2.260366E-6
5598341.0 ; 2.278478E-6
5600000.0 ; 2.29659E-6
5601556.0 ; 2.269045E-6
5603063.0 ; 2.242368E-6
5604524.0 ; 2.216505E-6
5605940.0 ; 2.191438E-6
5607311.0 ; 2.167168E-6
5608640.0 ; 2.143642E-6
5609928.0 ; 2.120841E-6
5610000.0 ; 2.119567E-6
5611176.0 ; 2.098749E-6
5612295.0 ; 2.07894E-6
5612385.0 ; 2.077497E-6
5613557.0 ; 2.0587E-6
5614692.0 ; 2.040497E-6
5615792.0 ; 2.022855E-6
5617924.0 ; 1.988663E-6
5619924.0 ; 1.956587E-6
5620000.0 ; 1.955368E-6
5621799.0 ; 1.926516E-6
5623557.0 ; 1.898321E-6
5623847.0 ; 1.89367E-6
5625206.0 ; 1.873798E-6
5626752.0 ; 1.851191E-6
5628203.0 ; 1.829974E-6
5629562.0 ; 1.810102E-6
5630000.0 ; 1.803697E-6
5630838.0 ; 1.791443E-6
5632033.0 ; 1.773969E-6
5633155.0 ; 1.757563E-6
5634698.0 ; 1.735E-6
5635257.0 ; 1.727505E-6
5637098.0 ; 1.702819E-6
5638709.0 ; 1.681218E-6
5640000.0 ; 1.663908E-6
5640119.0 ; 1.662312E-6
5641353.0 ; 1.645766E-6
5642434.0 ; 1.631271E-6
5644324.0 ; 1.605929E-6
5644890.0 ; 1.59834E-6
5645742.0 ; 1.587807E-6
5647871.0 ; 1.561488E-6
5650000.0 ; 1.535168E-6
5651556.0 ; 1.515933E-6
5653063.0 ; 1.497303E-6
5654461.0 ; 1.48002E-6
5654524.0 ; 1.479324E-6
5655940.0 ; 1.46368E-6
5657311.0 ; 1.448534E-6
5658641.0 ; 1.43384E-6
5659929.0 ; 1.419611E-6
5660000.0 ; 1.418827E-6
5661176.0 ; 1.405834E-6
5662386.0 ; 1.392467E-6
5664729.0 ; 1.366582E-6
5666927.0 ; 1.342299E-6
5668989.0 ; 1.319518E-6
5670000.0 ; 1.308349E-6
5670922.0 ; 1.298163E-6
5672452.0 ; 1.28126E-6
5672735.0 ; 1.278538E-6
5674435.0 ; 1.262184E-6
5676030.0 ; 1.24684E-6
5677525.0 ; 1.232458E-6
5678927.0 ; 1.218971E-6
5680000.0 ; 1.208648E-6
5680242.0 ; 1.20632E-6
5681474.0 ; 1.194468E-6
5683787.0 ; 1.172217E-6
5685811.0 ; 1.152747E-6
5687583.0 ; 1.1357E-6
5688241.0 ; 1.12937E-6
5689133.0 ; 1.121768E-6
5690000.0 ; 1.114378E-6
5690490.0 ; 1.110202E-6
5692866.0 ; 1.089952E-6
5694649.0 ; 1.074756E-6
5695986.0 ; 1.063361E-6
5697993.0 ; 1.046255E-6
5700000.0 ; 1.02915E-6
5701556.0 ; 1.015888E-6
5702092.0 ; 1.01132E-6
5703063.0 ; 1.003876E-6
5704524.0 ; 9.926744E-7
5705940.0 ; 9.818182E-7
5708684.0 ; 9.607806E-7
5710000.0 ; 9.506911E-7
5711257.0 ; 9.41054E-7
5713671.0 ; 9.225464E-7
5714240.0 ; 9.18184E-7
5715935.0 ; 9.063386E-7
5718058.0 ; 8.915021E-7
5720000.0 ; 8.779305E-7
5720049.0 ; 8.775881E-7
5721916.0 ; 8.645407E-7
5723668.0 ; 8.522969E-7
5724890.0 ; 8.43757E-7
5725310.0 ; 8.411491E-7
5726850.0 ; 8.315869E-7
5728294.0 ; 8.226207E-7
5730000.0 ; 8.120277E-7
5731003.0 ; 8.057999E-7
5733374.0 ; 7.910777E-7
5735450.0 ; 7.781873E-7
5737266.0 ; 7.669114E-7
5738856.0 ; 7.570386E-7
5740000.0 ; 7.499353E-7
5740248.0 ; 7.483954E-7
5742685.0 ; 7.332634E-7
5743576.0 ; 7.27731E-7
5744512.0 ; 7.226411E-7
5747255.0 ; 7.07725E-7
5750000.0 ; 6.92798E-7
5753112.0 ; 6.758754E-7
5756031.0 ; 6.600022E-7
5757630.0 ; 6.51307E-7
5758770.0 ; 6.456946E-7
5760000.0 ; 6.396392E-7
5761338.0 ; 6.33052E-7
5763747.0 ; 6.211922E-7
5766006.0 ; 6.100709E-7
5768125.0 ; 5.996388E-7
5768193.0 ; 5.99304E-7
5770000.0 ; 5.913027E-7
5770112.0 ; 5.908067E-7
5771975.0 ; 5.825574E-7
5773723.0 ; 5.748173E-7
5777001.0 ; 5.603025E-7
5779871.0 ; 5.475942E-7
5780000.0 ; 5.47023E-7
5782383.0 ; 5.364711E-7
5784075.0 ; 5.28979E-7
5784582.0 ; 5.270028E-7
5786507.0 ; 5.194996E-7
5789877.0 ; 5.063641E-7
5790000.0 ; 5.058847E-7
5792406.0 ; 4.965067E-7
5794304.0 ; 4.891087E-7
5797151.0 ; 4.780117E-7
5800000.0 ; 4.66907E-7
5803112.0 ; 4.674981E-7
5806032.0 ; 4.680528E-7
5808770.0 ; 4.685729E-7
5810000.0 ; 4.688065E-7
5811338.0 ; 4.690607E-7
5813747.0 ; 4.695182E-7
5818266.0 ; 4.703766E-7
5820000.0 ; 4.70706E-7
5822224.0 ; 4.711284E-7
5825688.0 ; 4.717864E-7
5828722.0 ; 4.723627E-7
5830000.0 ; 4.726055E-7
5831377.0 ; 4.728671E-7
5836027.0 ; 4.737503E-7
5839517.0 ; 4.744133E-7
5840000.0 ; 4.74505E-7
5842136.0 ; 4.749107E-7
5846067.0 ; 4.756574E-7
5850000.0 ; 4.764045E-7
5856227.0 ; 4.775873E-7
5860000.0 ; 4.78304E-7
5861680.0 ; 4.786231E-7
5866457.0 ; 4.795305E-7
5870000.0 ; 4.802035E-7
5870639.0 ; 4.803249E-7
5877966.0 ; 4.817166E-7
5880000.0 ; 4.82103E-7
5883466.0 ; 4.827614E-7
5887595.0 ; 4.835457E-7
5890000.0 ; 4.840025E-7
5893794.0 ; 4.847232E-7
5900000.0 ; 4.85902E-7
5910000.0 ; 4.878015E-7
5920000.0 ; 4.89701E-7
5924947.0 ; 4.906407E-7
5930000.0 ; 4.916005E-7
5940000.0 ; 4.935E-7
5950000.0 ; 4.953995E-7
5960000.0 ; 4.97299E-7
5970000.0 ; 4.991985E-7
5980000.0 ; 5.01098E-7
5990000.0 ; 5.029975E-7
6000000.0 ; 5.04897E-7
6010000.0 ; 5.323677E-7
6020000.0 ; 5.598384E-7
6024643.0 ; 5.72593E-7
6030000.0 ; 5.89086E-7
6040000.0 ; 6.198737E-7
6046288.0 ; 6.39233E-7
6050000.0 ; 6.518593E-7
6060000.0 ; 6.858743E-7
6065292.0 ; 7.03875E-7
6070000.0 ; 7.213505E-7
6080000.0 ; 7.584693E-7
6081969.0 ; 7.65778E-7
6090000.0 ; 7.99145E-7
6100000.0 ; 8.406927E-7
6110000.0 ; 8.822404E-7
6111264.0 ; 8.87492E-7
6120000.0 ; 9.285992E-7
6130000.0 ; 9.756541E-7
6133328.0 ; 9.91314E-7
6140000.0 ; 1.025784E-6
6149929.0 ; 1.07708E-6
6150000.0 ; 1.077486E-6
6160000.0 ; 1.134622E-6
6170000.0 ; 1.191759E-6
6174913.0 ; 1.21983E-6
6180000.0 ; 1.252613E-6
6190000.0 ; 1.317056E-6
6200000.0 ; 1.3815E-6
6210000.0 ; 1.304884E-6
6220000.0 ; 1.228267E-6
6224654.0 ; 1.19261E-6
6230000.0 ; 1.157067E-6
6240000.0 ; 1.090582E-6
6246307.0 ; 1.04865E-6
6250000.0 ; 1.026959E-6
6260000.0 ; 9.682231E-7
6265315.0 ; 9.37005E-7
6270000.0 ; 9.123174E-7
6274950.0 ; 8.862334E-7
6280000.0 ; 8.596224E-7
6281994.0 ; 8.49115E-7
6290000.0 ; 8.107485E-7
6296625.0 ; 7.79E-7
6300000.0 ; 7.646704E-7
6310000.0 ; 7.222122E-7
6320000.0 ; 6.797541E-7
6322311.0 ; 6.69942E-7
6330000.0 ; 6.41445E-7
6340000.0 ; 6.04383E-7
6341644.0 ; 5.9829E-7
6350000.0 ; 5.703219E-7
6356183.0 ; 5.49627E-7
6360000.0 ; 5.381652E-7
6370000.0 ; 5.081368E-7
6378054.0 ; 4.83952E-7
6380000.0 ; 4.788243E-7
6390000.0 ; 4.524741E-7
6400000.0 ; 4.26124E-7
6410000.0 ; 4.224216E-7
6420000.0 ; 4.187192E-7
6430000.0 ; 4.150168E-7
6440000.0 ; 4.113144E-7
6450000.0 ; 4.07612E-7
6460000.0 ; 4.039095E-7
6470000.0 ; 4.002071E-7
6480000.0 ; 3.965047E-7
6490000.0 ; 3.928023E-7
6499230.0 ; 3.89385E-7
6500000.0 ; 3.891285E-7
6510000.0 ; 3.857969E-7
6520000.0 ; 3.824654E-7
6530000.0 ; 3.791338E-7
6540000.0 ; 3.758023E-7
6550000.0 ; 3.724707E-7
6560000.0 ; 3.691392E-7
6570000.0 ; 3.658076E-7
6580000.0 ; 3.624761E-7
6590000.0 ; 3.591445E-7
6600000.0 ; 3.55813E-7
6610000.0 ; 3.553081E-7
6620000.0 ; 3.548032E-7
6630000.0 ; 3.542983E-7
6640000.0 ; 3.537934E-7
6650000.0 ; 3.532885E-7
6660000.0 ; 3.527836E-7
6670000.0 ; 3.522787E-7
6680000.0 ; 3.517738E-7
6690000.0 ; 3.512689E-7
6700000.0 ; 3.50764E-7
6710000.0 ; 3.502591E-7
6720000.0 ; 3.497542E-7
6730000.0 ; 3.492493E-7
6740000.0 ; 3.487444E-7
6750000.0 ; 3.482395E-7
6760000.0 ; 3.477346E-7
6770000.0 ; 3.472297E-7
6780000.0 ; 3.467248E-7
6790000.0 ; 3.462199E-7
6800000.0 ; 3.45715E-7
6810000.0 ; 3.475195E-7
6820000.0 ; 3.493239E-7
6830000.0 ; 3.511284E-7
6840000.0 ; 3.529328E-7
6850000.0 ; 3.547373E-7
6860000.0 ; 3.565417E-7
6870000.0 ; 3.583462E-7
6880000.0 ; 3.601506E-7
6890000.0 ; 3.619551E-7
6900000.0 ; 3.637595E-7
6910000.0 ; 3.65564E-7
6920000.0 ; 3.673684E-7
6930000.0 ; 3.691729E-7
6940000.0 ; 3.709773E-7
6950000.0 ; 3.727818E-7
6960000.0 ; 3.745862E-7
6970000.0 ; 3.763907E-7
6980000.0 ; 3.781951E-7
6990000.0 ; 3.799996E-7
7000000.0 ; 3.81804E-7
7024693.0 ; 4.27423E-7
7046371.0 ; 4.71788E-7
7050000.0 ; 4.799116E-7
7065393.0 ; 5.14369E-7
7098807.0 ; 5.98342E-7
7100000.0 ; 6.017488E-7
7123971.0 ; 6.70201E-7
7142903.0 ; 7.29705E-7
7150000.0 ; 7.544415E-7
7171394.0 ; 8.2901E-7
7200000.0 ; 9.41831E-7
7224701.0 ; 8.34949E-7
7238500.0 ; 7.817946E-7
7246384.0 ; 7.51425E-7
7250000.0 ; 7.388435E-7
7265410.0 ; 6.85226E-7
7282099.0 ; 6.32103E-7
7300000.0 ; 5.812387E-7
7303104.0 ; 5.724189E-7
7306113.0 ; 5.638691E-7
7309029.0 ; 5.555835E-7
7311397.0 ; 5.48855E-7
7311855.0 ; 5.477094E-7
7314593.0 ; 5.408606E-7
7317247.0 ; 5.342219E-7
7319819.0 ; 5.277884E-7
7322312.0 ; 5.215524E-7
7324727.0 ; 5.155116E-7
7327068.0 ; 5.096558E-7
7329336.0 ; 5.039827E-7
7331534.0 ; 4.984846E-7
7333448.0 ; 4.93697E-7
7333664.0 ; 4.932059E-7
7335728.0 ; 4.885133E-7
7339728.0 ; 4.794191E-7
7343481.0 ; 4.708865E-7
7347001.0 ; 4.628836E-7
7350000.0 ; 4.560652E-7
7350030.0 ; 4.55997E-7
7350302.0 ; 4.554384E-7
7353398.0 ; 4.490805E-7
7356302.0 ; 4.431168E-7
7359026.0 ; 4.375228E-7
7360700.0 ; 4.34085E-7
7361580.0 ; 4.322779E-7
7363975.0 ; 4.273595E-7
7366222.0 ; 4.22745E-7
7368328.0 ; 4.184201E-7
7372280.0 ; 4.103043E-7
7374972.0 ; 4.04776E-7
7375739.0 ; 4.033826E-7
7378767.0 ; 3.978818E-7
7381418.0 ; 3.930659E-7
7383738.0 ; 3.888513E-7
7387800.0 ; 3.814721E-7
7390848.0 ; 3.759349E-7
7393135.0 ; 3.717803E-7
7396567.0 ; 3.655455E-7
7400000.0 ; 3.59309E-7
7400880.0 ; 3.593514E-7
7401706.0 ; 3.593912E-7
7402480.0 ; 3.594285E-7
7403104.0 ; 3.594586E-7
7403205.0 ; 3.594635E-7
7403886.0 ; 3.594963E-7
7404524.0 ; 3.595271E-7
7405122.0 ; 3.595559E-7
7405683.0 ; 3.595829E-7
7406113.0 ; 3.596036E-7
7406209.0 ; 3.596083E-7
7406702.0 ; 3.59632E-7
7407164.0 ; 3.596543E-7
7408030.0 ; 3.59696E-7
7408789.0 ; 3.597326E-7
7409030.0 ; 3.597442E-7
7409452.0 ; 3.597646E-7
7410033.0 ; 3.597926E-7
7410541.0 ; 3.598171E-7
7411431.0 ; 3.5986E-7
7411856.0 ; 3.598805E-7
7412098.0 ; 3.598921E-7
7412598.0 ; 3.599162E-7
7413349.0 ; 3.599524E-7
7414100.0 ; 3.599886E-7
7414594.0 ; 3.600124E-7
7414767.0 ; 3.600208E-7
7415429.0 ; 3.600527E-7
7416086.0 ; 3.600843E-7
7416738.0 ; 3.601158E-7
7417248.0 ; 3.601404E-7
7417385.0 ; 3.60147E-7
7418027.0 ; 3.601779E-7
7418664.0 ; 3.602086E-7
7419296.0 ; 3.602391E-7
7419821.0 ; 3.602644E-7
7419923.0 ; 3.602693E-7
7420545.0 ; 3.602993E-7
7421163.0 ; 3.603291E-7
7421775.0 ; 3.603586E-7
7422313.0 ; 3.603845E-7
7422383.0 ; 3.603879E-7
7422987.0 ; 3.60417E-7
7423585.0 ; 3.604458E-7
7424179.0 ; 3.604744E-7
7424729.0 ; 3.605009E-7
7424768.0 ; 3.605028E-7
7425938.0 ; 3.605592E-7
7427069.0 ; 3.606137E-7
7427090.0 ; 3.606147E-7
7428223.0 ; 3.606693E-7
7429338.0 ; 3.607231E-7
7429340.0 ; 3.607232E-7
7430439.0 ; 3.607762E-7
7431520.0 ; 3.608283E-7
7431536.0 ; 3.60829E-7
7432586.0 ; 3.608796E-7
7433634.0 ; 3.609302E-7
7434667.0 ; 3.609799E-7
7435683.0 ; 3.610289E-7
7435796.0 ; 3.610344E-7
7436684.0 ; 3.610772E-7
7437669.0 ; 3.611246E-7
7438639.0 ; 3.611714E-7
7439594.0 ; 3.612174E-7
7439793.0 ; 3.61227E-7
7440534.0 ; 3.612627E-7
7441459.0 ; 3.613073E-7
7442371.0 ; 3.613513E-7
7443268.0 ; 3.613945E-7
7443542.0 ; 3.614077E-7
7444151.0 ; 3.614371E-7
7445020.0 ; 3.61479E-7
7445876.0 ; 3.615202E-7
7446719.0 ; 3.615609E-7
7447058.0 ; 3.615772E-7
7447548.0 ; 3.616008E-7
7448365.0 ; 3.616402E-7
7449169.0 ; 3.616789E-7
7449961.0 ; 3.617171E-7
7450000.0 ; 3.61719E-7
7450356.0 ; 3.617362E-7
7450740.0 ; 3.617547E-7
7451507.0 ; 3.617916E-7
7452263.0 ; 3.618281E-7
7453006.0 ; 3.618639E-7
7453449.0 ; 3.618852E-7
7453738.0 ; 3.618992E-7
7454459.0 ; 3.619339E-7
7455168.0 ; 3.619681E-7
7455867.0 ; 3.620018E-7
7456350.0 ; 3.620251E-7
7456554.0 ; 3.620349E-7
7457231.0 ; 3.620675E-7
7457897.0 ; 3.620996E-7
7458554.0 ; 3.621313E-7
7459070.0 ; 3.621562E-7
7459199.0 ; 3.621624E-7
7459835.0 ; 3.62193E-7
7460461.0 ; 3.622232E-7
7461077.0 ; 3.622529E-7
7461622.0 ; 3.622792E-7
7461684.0 ; 3.622822E-7
7462281.0 ; 3.623109E-7
7463457.0 ; 3.623676E-7
7464015.0 ; 3.623945E-7
7464596.0 ; 3.624225E-7
7465700.0 ; 3.624757E-7
7466259.0 ; 3.625027E-7
7466769.0 ; 3.625273E-7
7467806.0 ; 3.625772E-7
7468810.0 ; 3.626256E-7
7469782.0 ; 3.626725E-7
7470468.0 ; 3.627056E-7
7470725.0 ; 3.627179E-7
7471638.0 ; 3.62762E-7
7472523.0 ; 3.628046E-7
7473380.0 ; 3.628459E-7
7474153.0 ; 3.628832E-7
7474210.0 ; 3.628859E-7
7475015.0 ; 3.629247E-7
7475794.0 ; 3.629623E-7
7476550.0 ; 3.629987E-7
7477281.0 ; 3.630339E-7
7477379.0 ; 3.630387E-7
7477990.0 ; 3.630681E-7
7478677.0 ; 3.631012E-7
7479342.0 ; 3.631333E-7
7479987.0 ; 3.631644E-7
7480203.0 ; 3.631748E-7
7480612.0 ; 3.631945E-7
7481217.0 ; 3.632237E-7
7482389.0 ; 3.632801E-7
7482675.0 ; 3.632939E-7
7483489.0 ; 3.633332E-7
7484520.0 ; 3.633829E-7
7485486.0 ; 3.634294E-7
7486392.0 ; 3.634731E-7
7487002.0 ; 3.635025E-7
7487242.0 ; 3.635141E-7
7488039.0 ; 3.635525E-7
7488786.0 ; 3.635885E-7
7489486.0 ; 3.636222E-7
7490143.0 ; 3.636539E-7
7490249.0 ; 3.63659E-7
7490759.0 ; 3.636836E-7
7491913.0 ; 3.637392E-7
7492686.0 ; 3.637765E-7
7492923.0 ; 3.637879E-7
7493808.0 ; 3.638305E-7
7494581.0 ; 3.638678E-7
7495258.0 ; 3.639004E-7
7496342.0 ; 3.639527E-7
7496444.0 ; 3.639576E-7
7497332.0 ; 3.640004E-7
7497999.0 ; 3.640326E-7
7498999.0 ; 3.640808E-7
7500000.0 ; 3.64129E-7
7503105.0 ; 3.642787E-7
7506114.0 ; 3.644237E-7
7506211.0 ; 3.644284E-7
7509030.0 ; 3.645642E-7
7511856.0 ; 3.647005E-7
7512039.0 ; 3.647093E-7
7514595.0 ; 3.648325E-7
7517250.0 ; 3.649605E-7
7517506.0 ; 3.649728E-7
7519822.0 ; 3.650844E-7
7522315.0 ; 3.652046E-7
7522636.0 ; 3.652201E-7
7524730.0 ; 3.65321E-7
7527071.0 ; 3.654338E-7
7527147.0 ; 3.654375E-7
7527448.0 ; 3.65452E-7
7529340.0 ; 3.655432E-7
7531538.0 ; 3.656491E-7
7531679.0 ; 3.656559E-7
7531962.0 ; 3.656696E-7
7533668.0 ; 3.657518E-7
7535732.0 ; 3.658513E-7
7535931.0 ; 3.658609E-7
7536197.0 ; 3.658737E-7
7537732.0 ; 3.659477E-7
7539670.0 ; 3.660411E-7
7539920.0 ; 3.660531E-7
7540169.0 ; 3.660651E-7
7543427.0 ; 3.662222E-7
7543661.0 ; 3.662335E-7
7543894.0 ; 3.662447E-7
7546950.0 ; 3.66392E-7
7547170.0 ; 3.664026E-7
7547389.0 ; 3.664131E-7
7550000.0 ; 3.66539E-7
7550255.0 ; 3.665513E-7
7550461.0 ; 3.665612E-7
7553354.0 ; 3.667007E-7
7553548.0 ; 3.6671E-7
7553945.0 ; 3.667291E-7
7556261.0 ; 3.668408E-7
7556442.0 ; 3.668495E-7
7558987.0 ; 3.669722E-7
7559157.0 ; 3.669804E-7
7559687.0 ; 3.670059E-7
7561544.0 ; 3.670954E-7
7561704.0 ; 3.671031E-7
7563942.0 ; 3.67211E-7
7564714.0 ; 3.672482E-7
7566191.0 ; 3.673194E-7
7566480.0 ; 3.673333E-7
7568299.0 ; 3.67421E-7
7569116.0 ; 3.674604E-7
7570277.0 ; 3.675164E-7
7570662.0 ; 3.675349E-7
7572969.0 ; 3.676461E-7
7573986.0 ; 3.676951E-7
7574323.0 ; 3.677114E-7
7576343.0 ; 3.678087E-7
7577233.0 ; 3.678516E-7
7577528.0 ; 3.678658E-7
7580075.0 ; 3.679886E-7
7580333.0 ; 3.680011E-7
7582250.0 ; 3.680935E-7
7582563.0 ; 3.681085E-7
7584740.0 ; 3.682135E-7
7585245.0 ; 3.682378E-7
7586646.0 ; 3.683053E-7
7586684.0 ; 3.683072E-7
7588931.0 ; 3.684155E-7
7589982.0 ; 3.684661E-7
7590011.0 ; 3.684675E-7
7591697.0 ; 3.685488E-7
7592485.0 ; 3.685868E-7
7595003.0 ; 3.687081E-7
7595847.0 ; 3.687488E-7
7596242.0 ; 3.687679E-7
7600000.0 ; 3.68949E-7
7603105.0 ; 3.797461E-7
7606114.0 ; 3.902094E-7
7609031.0 ; 4.003527E-7
7612348.0 ; 4.11887E-7
7614685.0 ; 4.209131E-7
7619989.0 ; 4.413986E-7
7623943.0 ; 4.5667E-7
7624877.0 ; 4.606508E-7
7624965.0 ; 4.610258E-7
7629634.0 ; 4.809255E-7
7634013.0 ; 4.995891E-7
7634829.0 ; 5.03067E-7
7638120.0 ; 5.18449E-7
7641973.0 ; 5.364579E-7
7643589.0 ; 5.44011E-7
7645049.0 ; 5.50835E-7
7645587.0 ; 5.535769E-7
7648976.0 ; 5.708486E-7
7649836.0 ; 5.752315E-7
7650000.0 ; 5.760673E-7
7652155.0 ; 5.870501E-7
7654643.0 ; 5.9973E-7
7655137.0 ; 6.024605E-7
7660730.0 ; 6.333751E-7
7663648.0 ; 6.49504E-7
7665628.0 ; 6.617652E-7
7669916.0 ; 6.883188E-7
7671743.0 ; 6.996325E-7
7673670.0 ; 7.115655E-7
7676956.0 ; 7.319141E-7
7680560.0 ; 7.54232E-7
7682711.0 ; 7.695196E-7
7687029.0 ; 8.002086E-7
7690270.0 ; 8.232431E-7
7695133.0 ; 8.578054E-7
7695390.0 ; 8.59632E-7
7700000.0 ; 8.966E-7
7706212.0 ; 9.464145E-7
7708389.0 ; 9.63872E-7
7712041.0 ; 9.964194E-7
7717509.0 ; 1.045151E-6
7719781.0 ; 1.0654E-6
7722639.0 ; 1.093336E-6
7724879.0 ; 1.115231E-6
7727451.0 ; 1.140371E-6
7729763.0 ; 1.16297E-6
7731966.0 ; 1.187234E-6
7736200.0 ; 1.233869E-6
7740000.0 ; 1.275723E-6
7740173.0 ; 1.277629E-6
7743898.0 ; 1.318657E-6
7747263.0 ; 1.35572E-6
7749838.0 ; 1.388074E-6
7750000.0 ; 1.39011E-6
7750889.0 ; 1.40128E-6
7757011.0 ; 1.478202E-6
7760000.0 ; 1.515758E-6
7760414.0 ; 1.52096E-6
7762348.0 ; 1.54779E-6
7762371.0 ; 1.548109E-6
7767065.0 ; 1.613227E-6
7770291.0 ; 1.65798E-6
7771174.0 ; 1.671608E-6
7778371.0 ; 1.782681E-6
7780000.0 ; 1.807822E-6
7783772.0 ; 1.866036E-6
7785131.0 ; 1.88701E-6
7787826.0 ; 1.934255E-6
7793910.0 ; 2.04091E-6
7800000.0 ; 2.14767E-6
7806213.0 ; 2.040004E-6
7812041.0 ; 1.939009E-6
7812352.0 ; 1.93362E-6
7817510.0 ; 1.853012E-6
7820000.0 ; 1.814099E-6
7823950.0 ; 1.75237E-6
7827774.0 ; 1.698127E-6
7834839.0 ; 1.59791E-6
7836766.0 ; 1.572947E-6
7840000.0 ; 1.531052E-6
7844642.0 ; 1.470918E-6
7845061.0 ; 1.46549E-6
7849841.0 ; 1.408618E-6
7850000.0 ; 1.406726E-6
7851541.0 ; 1.388392E-6
7854656.0 ; 1.35133E-6
7857582.0 ; 1.320381E-6
7860000.0 ; 1.294806E-6
7868165.0 ; 1.208444E-6
7872678.0 ; 1.16071E-6
7876112.0 ; 1.129288E-6
7880000.0 ; 1.093712E-6
7882077.0 ; 1.074707E-6
7888482.0 ; 1.0161E-6
7891033.0 ; 9.955381E-7
7900000.0 ; 9.23261E-7
7902336.0 ; 9.04432E-7
7912431.0 ; 8.316097E-7
7914479.0 ; 8.16836E-7
7920000.0 ; 7.806906E-7
7923325.0 ; 7.589221E-7
7925119.0 ; 7.47177E-7
7934440.0 ; 6.91116E-7
7940000.0 ; 6.611128E-7
7942424.0 ; 6.480322E-7
7950000.0 ; 6.071501E-7
7950780.0 ; 6.02941E-7
7953000.0 ; 5.923314E-7
7953006.0 ; 5.923028E-7
7956779.0 ; 5.742713E-7
7960000.0 ; 5.588779E-7
7963056.0 ; 5.44273E-7
7978360.0 ; 4.800138E-7
7980000.0 ; 4.731277E-7
7981507.0 ; 4.668E-7
8000000.0 ; 4.00355E-7
8020000.0 ; 3.904735E-7
8024883.0 ; 3.88061E-7
8040000.0 ; 3.805921E-7
8050000.0 ; 3.756513E-7
8060000.0 ; 3.707106E-7
8062354.0 ; 3.695475E-7
8080000.0 ; 3.608291E-7
8099382.0 ; 3.51253E-7
8100000.0 ; 3.509884E-7
8149846.0 ; 3.296466E-7
8150000.0 ; 3.295807E-7
8200000.0 ; 3.08173E-7
8249848.0 ; 3.031807E-7
8250000.0 ; 3.031655E-7
8300000.0 ; 2.98158E-7
8309100.0 ; 2.972466E-7
8349850.0 ; 2.931655E-7
8350000.0 ; 2.931505E-7
8400000.0 ; 2.88143E-7
8449852.0 ; 2.864652E-7
8450000.0 ; 2.864603E-7
8500000.0 ; 2.847775E-7
8520000.0 ; 2.841044E-7
8540000.0 ; 2.834313E-7
8549854.0 ; 2.830997E-7
8550000.0 ; 2.830948E-7
8560000.0 ; 2.827582E-7
8580000.0 ; 2.820851E-7
8600000.0 ; 2.81412E-7
8620000.0 ; 2.81086E-7
8640000.0 ; 2.8076E-7
8649855.0 ; 2.805994E-7
8650000.0 ; 2.80597E-7
8660000.0 ; 2.80434E-7
8680000.0 ; 2.80108E-7
8700000.0 ; 2.79782E-7
8708800.0 ; 2.796386E-7
8720000.0 ; 2.79456E-7
8740000.0 ; 2.7913E-7
8749857.0 ; 2.789693E-7
8750000.0 ; 2.78967E-7
8760000.0 ; 2.78804E-7
8780000.0 ; 2.78478E-7
8800000.0 ; 2.78152E-7
8801554.0 ; 2.781591E-7
8803084.0 ; 2.781661E-7
8804590.0 ; 2.78173E-7
8806073.0 ; 2.781798E-7
8807533.0 ; 2.781865E-7
8808970.0 ; 2.78193E-7
8810385.0 ; 2.781995E-7
8811778.0 ; 2.782059E-7
8813150.0 ; 2.782122E-7
8814501.0 ; 2.782183E-7
8815830.0 ; 2.782244E-7
8817139.0 ; 2.782304E-7
8818428.0 ; 2.782363E-7
8819697.0 ; 2.782421E-7
8820000.0 ; 2.782435E-7
8820946.0 ; 2.782478E-7
8822176.0 ; 2.782535E-7
8823387.0 ; 2.78259E-7
8824579.0 ; 2.782644E-7
8825752.0 ; 2.782698E-7
8826907.0 ; 2.782751E-7
8828045.0 ; 2.782803E-7
8829165.0 ; 2.782854E-7
8830267.0 ; 2.782905E-7
8831352.0 ; 2.782954E-7
8832421.0 ; 2.783003E-7
8833473.0 ; 2.783051E-7
8834509.0 ; 2.783099E-7
8835528.0 ; 2.783145E-7
8836532.0 ; 2.783191E-7
8837520.0 ; 2.783237E-7
8838493.0 ; 2.783281E-7
8839451.0 ; 2.783325E-7
8840000.0 ; 2.78335E-7
8840394.0 ; 2.783368E-7
8841322.0 ; 2.78341E-7
8842236.0 ; 2.783452E-7
8843136.0 ; 2.783493E-7
8844021.0 ; 2.783534E-7
8845765.0 ; 2.783614E-7
8847455.0 ; 2.783691E-7
8849092.0 ; 2.783766E-7
8849859.0 ; 2.783801E-7
8850000.0 ; 2.783808E-7
8850679.0 ; 2.783839E-7
8852216.0 ; 2.783909E-7
8853705.0 ; 2.783977E-7
8855148.0 ; 2.784043E-7
8856547.0 ; 2.784107E-7
8857901.0 ; 2.784169E-7
8859214.0 ; 2.784229E-7
8860000.0 ; 2.784265E-7
8860486.0 ; 2.784287E-7
8861718.0 ; 2.784344E-7
8862912.0 ; 2.784398E-7
8864068.0 ; 2.784451E-7
8865189.0 ; 2.784502E-7
8866275.0 ; 2.784552E-7
8867327.0 ; 2.7846E-7
8868346.0 ; 2.784647E-7
8869333.0 ; 2.784692E-7
8870290.0 ; 2.784736E-7
8871217.0 ; 2.784778E-7
8872115.0 ; 2.784819E-7
8873855.0 ; 2.784899E-7
8875487.0 ; 2.784974E-7
8877017.0 ; 2.785044E-7
8878452.0 ; 2.785109E-7
8879797.0 ; 2.785171E-7
8880000.0 ; 2.78518E-7
8881058.0 ; 2.785228E-7
8882241.0 ; 2.785283E-7
8883350.0 ; 2.785333E-7
8884390.0 ; 2.785381E-7
8885365.0 ; 2.785425E-7
8886279.0 ; 2.785467E-7
8887993.0 ; 2.785546E-7
8889493.0 ; 2.785614E-7
8890805.0 ; 2.785674E-7
8891954.0 ; 2.785727E-7
8892960.0 ; 2.785773E-7
8893839.0 ; 2.785813E-7
8895379.0 ; 2.785884E-7
8896534.0 ; 2.785936E-7
8898267.0 ; 2.786016E-7
8900000.0 ; 2.786095E-7
8903108.0 ; 2.786237E-7
8906120.0 ; 2.786375E-7
8909039.0 ; 2.786509E-7
8911868.0 ; 2.786638E-7
8914609.0 ; 2.786763E-7
8917265.0 ; 2.786885E-7
8919839.0 ; 2.787003E-7
8922333.0 ; 2.787117E-7
8924750.0 ; 2.787227E-7
8927092.0 ; 2.787334E-7
8929361.0 ; 2.787438E-7
8931560.0 ; 2.787539E-7
8933691.0 ; 2.787636E-7
8937821.0 ; 2.787825E-7
8941695.0 ; 2.788003E-7
8945328.0 ; 2.788169E-7
8948735.0 ; 2.788325E-7
8950000.0 ; 2.788383E-7
8951930.0 ; 2.788471E-7
8954927.0 ; 2.788608E-7
8957738.0 ; 2.788737E-7
8960373.0 ; 2.788857E-7
8962845.0 ; 2.78897E-7
8965162.0 ; 2.789076E-7
8967336.0 ; 2.789176E-7
8971412.0 ; 2.789362E-7
8974981.0 ; 2.789525E-7
8978104.0 ; 2.789668E-7
8980838.0 ; 2.789793E-7
8983231.0 ; 2.789903E-7
8987421.0 ; 2.790095E-7
8990564.0 ; 2.790238E-7
8992922.0 ; 2.790346E-7
8996460.0 ; 2.790508E-7
9000000.0 ; 2.79067E-7
9049862.0 ; 2.808658E-7
9050000.0 ; 2.808708E-7
9100000.0 ; 2.826745E-7
9149863.0 ; 2.844733E-7
9150000.0 ; 2.844783E-7
9200000.0 ; 2.86282E-7
9249865.0 ; 2.939714E-7
9250000.0 ; 2.939923E-7
9300000.0 ; 3.017025E-7
9344600.0 ; 3.0858E-7
9350000.0 ; 3.094128E-7
9400000.0 ; 3.17123E-7
9401554.0 ; 3.185245E-7
9403085.0 ; 3.199053E-7
9404591.0 ; 3.212636E-7
9406075.0 ; 3.22602E-7
9407535.0 ; 3.239187E-7
9408973.0 ; 3.252156E-7
9410389.0 ; 3.264927E-7
9411782.0 ; 3.27749E-7
9413154.0 ; 3.289864E-7
9414505.0 ; 3.302049E-7
9415835.0 ; 3.314044E-7
9417144.0 ; 3.325849E-7
9418433.0 ; 3.337475E-7
9419703.0 ; 3.348929E-7
9420952.0 ; 3.360193E-7
9422182.0 ; 3.371287E-7
9423393.0 ; 3.382208E-7
9424585.0 ; 3.392959E-7
9425759.0 ; 3.403547E-7
9426914.0 ; 3.413964E-7
9428052.0 ; 3.424227E-7
9429172.0 ; 3.434328E-7
9430275.0 ; 3.444276E-7
9431360.0 ; 3.454062E-7
9432429.0 ; 3.463703E-7
9433481.0 ; 3.473191E-7
9434517.0 ; 3.482534E-7
9435536.0 ; 3.491725E-7
9436540.0 ; 3.500779E-7
9437529.0 ; 3.509699E-7
9438502.0 ; 3.518474E-7
9439459.0 ; 3.527106E-7
9440402.0 ; 3.53561E-7
9441331.0 ; 3.543989E-7
9442245.0 ; 3.552232E-7
9443144.0 ; 3.56034E-7
9444030.0 ; 3.568331E-7
9444902.0 ; 3.576195E-7
9445761.0 ; 3.583942E-7
9446606.0 ; 3.591563E-7
9448270.0 ; 3.606571E-7
9449606.0 ; 3.61862E-7
9449882.0 ; 3.6214E-7
9450000.0 ; 3.622589E-7
9451444.0 ; 3.637135E-7
9452958.0 ; 3.652386E-7
9454424.0 ; 3.667153E-7
9455845.0 ; 3.681467E-7
9457222.0 ; 3.695338E-7
9457500.0 ; 3.698139E-7
9458556.0 ; 3.708776E-7
9459848.0 ; 3.721791E-7
9461100.0 ; 3.734403E-7
9462314.0 ; 3.746632E-7
9463489.0 ; 3.758468E-7
9464628.0 ; 3.769941E-7
9465731.0 ; 3.781052E-7
9466800.0 ; 3.79182E-7
9467836.0 ; 3.802256E-7
9468839.0 ; 3.81236E-7
9469812.0 ; 3.822161E-7
9470754.0 ; 3.83165E-7
9471666.0 ; 3.840837E-7
9472550.0 ; 3.849742E-7
9473407.0 ; 3.858375E-7
9475067.0 ; 3.875097E-7
9476623.0 ; 3.890771E-7
9478083.0 ; 3.905478E-7
9479451.0 ; 3.919258E-7
9480734.0 ; 3.932182E-7
9481937.0 ; 3.9443E-7
9483065.0 ; 3.955663E-7
9484122.0 ; 3.96631E-7
9485114.0 ; 3.976303E-7
9486044.0 ; 3.985671E-7
9486915.0 ; 3.994445E-7
9486982.0 ; 3.99512E-7
9488550.0 ; 4.012916E-7
9489980.0 ; 4.029146E-7
9491232.0 ; 4.043356E-7
9492328.0 ; 4.055795E-7
9493287.0 ; 4.066679E-7
9494125.0 ; 4.07619E-7
9495594.0 ; 4.092863E-7
9496695.0 ; 4.105359E-7
9498347.0 ; 4.124108E-7
9500000.0 ; 4.142869E-7
9501554.0 ; 4.160507E-7
9503085.0 ; 4.177883E-7
9504592.0 ; 4.194987E-7
9506075.0 ; 4.211818E-7
9507536.0 ; 4.2284E-7
9508973.0 ; 4.244709E-7
9510389.0 ; 4.26078E-7
9511783.0 ; 4.276602E-7
9513155.0 ; 4.292173E-7
9514506.0 ; 4.307507E-7
9515836.0 ; 4.322602E-7
9517145.0 ; 4.337458E-7
9518434.0 ; 4.352088E-7
9519703.0 ; 4.366491E-7
9520953.0 ; 4.380678E-7
9522183.0 ; 4.394638E-7
9523394.0 ; 4.408382E-7
9524586.0 ; 4.421911E-7
9525760.0 ; 4.435235E-7
9528071.0 ; 4.461464E-7
9530311.0 ; 4.486887E-7
9532481.0 ; 4.511516E-7
9534584.0 ; 4.535384E-7
9536621.0 ; 4.558504E-7
9538595.0 ; 4.580908E-7
9540508.0 ; 4.602619E-7
9542362.0 ; 4.623662E-7
9543324.0 ; 4.63458E-7
9544158.0 ; 4.645496E-7
9545898.0 ; 4.668271E-7
9547584.0 ; 4.690338E-7
9549218.0 ; 4.711725E-7
9550000.0 ; 4.721961E-7
9550801.0 ; 4.732445E-7
9552334.0 ; 4.75251E-7
9553820.0 ; 4.77196E-7
9555260.0 ; 4.790808E-7
9556655.0 ; 4.809067E-7
9558007.0 ; 4.826763E-7
9559316.0 ; 4.843896E-7
9560585.0 ; 4.860506E-7
9561814.0 ; 4.876592E-7
9563005.0 ; 4.89218E-7
9565313.0 ; 4.922389E-7
9567477.0 ; 4.950713E-7
9569507.0 ; 4.977284E-7
9571410.0 ; 5.002192E-7
9573194.0 ; 5.025542E-7
9574867.0 ; 5.04744E-7
9576436.0 ; 5.067976E-7
9577907.0 ; 5.087229E-7
9579287.0 ; 5.105292E-7
9580580.0 ; 5.122216E-7
9581792.0 ; 5.138079E-7
9584066.0 ; 5.167843E-7
9586057.0 ; 5.193903E-7
9587799.0 ; 5.216704E-7
9589323.0 ; 5.236651E-7
9590657.0 ; 5.254111E-7
9592992.0 ; 5.284674E-7
9594743.0 ; 5.307592E-7
9596057.0 ; 5.324791E-7
9598028.0 ; 5.350589E-7
9600000.0 ; 5.3764E-7
9603109.0 ; 5.398366E-7
9609137.0 ; 5.440956E-7
9614791.0 ; 5.480903E-7
9620000.0 ; 5.517706E-7
9620094.0 ; 5.51837E-7
9625069.0 ; 5.55352E-7
9629735.0 ; 5.586486E-7
9634112.0 ; 5.617411E-7
9638217.0 ; 5.646414E-7
9640000.0 ; 5.659011E-7
9642066.0 ; 5.673608E-7
9645677.0 ; 5.699121E-7
9649063.0 ; 5.723044E-7
9650000.0 ; 5.729664E-7
9652239.0 ; 5.745483E-7
9658196.0 ; 5.787571E-7
9660000.0 ; 5.800317E-7
9663412.0 ; 5.824424E-7
9667978.0 ; 5.856684E-7
9671975.0 ; 5.884924E-7
9675474.0 ; 5.909645E-7
9680000.0 ; 5.941623E-7
9681599.0 ; 5.95292E-7
9686196.0 ; 5.985399E-7
9689645.0 ; 6.009768E-7
9694821.0 ; 6.046338E-7
9699485.0 ; 6.07929E-7
9700000.0 ; 6.083362E-7
9720000.0 ; 6.241508E-7
9737500.0 ; 6.379885E-7
9740000.0 ; 6.399653E-7
9750000.0 ; 6.478726E-7
9753088.0 ; 6.503144E-7
9760000.0 ; 6.557799E-7
9768700.0 ; 6.626592E-7
9776516.0 ; 6.688395E-7
9780000.0 ; 6.715944E-7
9800000.0 ; 6.87409E-7
9800777.0 ; 6.854565E-7
9801549.0 ; 6.835166E-7
9802314.0 ; 6.815943E-7
9803073.0 ; 6.796871E-7
9803827.0 ; 6.777924E-7
9804575.0 ; 6.759128E-7
9805317.0 ; 6.740483E-7
9806053.0 ; 6.721988E-7
9806783.0 ; 6.703645E-7
9808233.0 ; 6.667208E-7
9809660.0 ; 6.63135E-7
9811066.0 ; 6.59602E-7
9812449.0 ; 6.561267E-7
9813811.0 ; 6.527043E-7
9815152.0 ; 6.493346E-7
9816472.0 ; 6.460176E-7
9817772.0 ; 6.427509E-7
9819051.0 ; 6.39537E-7
9820000.0 ; 6.371523E-7
9820311.0 ; 6.363709E-7
9821551.0 ; 6.332549E-7
9822772.0 ; 6.301868E-7
9823974.0 ; 6.271663E-7
9824780.0 ; 6.25141E-7
9824905.0 ; 6.248543E-7
9825158.0 ; 6.242742E-7
9826323.0 ; 6.216025E-7
9827470.0 ; 6.189722E-7
9828599.0 ; 6.163831E-7
9829710.0 ; 6.138353E-7
9830805.0 ; 6.113242E-7
9831882.0 ; 6.088544E-7
9832943.0 ; 6.064213E-7
9833987.0 ; 6.040271E-7
9835015.0 ; 6.016697E-7
9836028.0 ; 5.993466E-7
9837024.0 ; 5.970626E-7
9838005.0 ; 5.948129E-7
9838970.0 ; 5.925999E-7
9839921.0 ; 5.90419E-7
9840000.0 ; 5.902379E-7
9840857.0 ; 5.882726E-7
9841778.0 ; 5.861605E-7
9842686.0 ; 5.840782E-7
9843579.0 ; 5.820304E-7
9844458.0 ; 5.800146E-7
9845323.0 ; 5.78031E-7
9846175.0 ; 5.760771E-7
9846513.0 ; 5.75302E-7
9847014.0 ; 5.742797E-7
9847840.0 ; 5.725941E-7
9848652.0 ; 5.709372E-7
9849453.0 ; 5.693026E-7
9850000.0 ; 5.681864E-7
9850241.0 ; 5.676946E-7
9851016.0 ; 5.661132E-7
9851780.0 ; 5.645541E-7
9852531.0 ; 5.630217E-7
9853271.0 ; 5.615116E-7
9854728.0 ; 5.585384E-7
9856140.0 ; 5.556571E-7
9857507.0 ; 5.528676E-7
9858833.0 ; 5.501618E-7
9860000.0 ; 5.477804E-7
9860116.0 ; 5.475437E-7
9861360.0 ; 5.450052E-7
9862381.0 ; 5.429217E-7
9862566.0 ; 5.425442E-7
9863733.0 ; 5.401628E-7
9864865.0 ; 5.378529E-7
9865961.0 ; 5.356164E-7
9867023.0 ; 5.334492E-7
9868051.0 ; 5.313515E-7
9869048.0 ; 5.29317E-7
9870014.0 ; 5.273458E-7
9870950.0 ; 5.254358E-7
9871856.0 ; 5.23587E-7
9872735.0 ; 5.217933E-7
9873585.0 ; 5.200588E-7
9874410.0 ; 5.183753E-7
9875209.0 ; 5.167449E-7
9875982.0 ; 5.151675E-7
9876732.0 ; 5.13637E-7
9878185.0 ; 5.10672E-7
9879547.0 ; 5.078927E-7
9880000.0 ; 5.069683E-7
9880824.0 ; 5.052869E-7
9882021.0 ; 5.028443E-7
9883144.0 ; 5.005527E-7
9884197.0 ; 4.984039E-7
9884663.0 ; 4.97453E-7
9885184.0 ; 4.965203E-7
9886109.0 ; 4.948645E-7
9886977.0 ; 4.933106E-7
9887790.0 ; 4.918552E-7
9888553.0 ; 4.904894E-7
9889983.0 ; 4.879295E-7
9891234.0 ; 4.8569E-7
9892330.0 ; 4.83728E-7
9893288.0 ; 4.820131E-7
9894127.0 ; 4.805112E-7
9894861.0 ; 4.791972E-7
9896145.0 ; 4.768987E-7
9897109.0 ; 4.75173E-7
9898554.0 ; 4.725862E-7
9900000.0 ; 4.699977E-7
9913372.0 ; 4.4606E-7
9934958.0 ; 4.11032E-7
9950000.0 ; 3.890472E-7
9967426.0 ; 3.63578E-7
9978900.0 ; 3.487926E-7
1.0E7 ; 3.21603E-7
1.0027E7 ; 3.175994E-7
1.00361E7 ; 3.162501E-7
1.004406E7 ; 3.150697E-7
1.005E7 ; 3.141889E-7
1.005104E7 ; 3.140347E-7
1.005715E7 ; 3.131287E-7
1.006249E7 ; 3.123369E-7
1.007186E7 ; 3.109475E-7
1.007888E7 ; 3.099066E-7
1.008416E7 ; 3.091237E-7
1.009208E7 ; 3.079493E-7
1.009951E7 ; 3.068476E-7
1.01E7 ; 3.067749E-7
1.010622E7 ; 3.058526E-7
1.011206E7 ; 3.049866E-7
1.011313E7 ; 3.04828E-7
1.011753E7 ; 3.041755E-7
1.01278E7 ; 3.026527E-7
1.01368E7 ; 3.013182E-7
1.014468E7 ; 3.001497E-7
1.015E7 ; 2.993608E-7
1.015158E7 ; 2.991266E-7
1.015762E7 ; 2.982309E-7
1.01682E7 ; 2.966621E-7
1.017614E7 ; 2.954848E-7
1.01821E7 ; 2.94601E-7
1.0185E7 ; 2.94171E-7
1.019105E7 ; 2.932739E-7
1.02E7 ; 2.919468E-7
1.02031E7 ; 2.914871E-7
1.020614E7 ; 2.910363E-7
1.020622E7 ; 2.910245E-7
1.020914E7 ; 2.905915E-7
1.021206E7 ; 2.901585E-7
1.02121E7 ; 2.901526E-7
1.021501E7 ; 2.897211E-7
1.021787E7 ; 2.89297E-7
1.02207E7 ; 2.888774E-7
1.022301E7 ; 2.885348E-7
1.022347E7 ; 2.884666E-7
1.022621E7 ; 2.880603E-7
1.02289E7 ; 2.876615E-7
1.023155E7 ; 2.872685E-7
1.02326E7 ; 2.871128E-7
1.023416E7 ; 2.868815E-7
1.023673E7 ; 2.865004E-7
1.023927E7 ; 2.861238E-7
1.0241E7 ; 2.858673E-7
1.024176E7 ; 2.857546E-7
1.024421E7 ; 2.853913E-7
1.024663E7 ; 2.850324E-7
1.024695E7 ; 2.84985E-7
1.024836E7 ; 2.848042E-7
1.024901E7 ; 2.847209E-7
1.025E7 ; 2.845939E-7
1.025135E7 ; 2.844208E-7
1.025366E7 ; 2.841246E-7
1.02548E7 ; 2.839784E-7
1.025593E7 ; 2.838335E-7
1.025816E7 ; 2.835476E-7
1.026257E7 ; 2.829821E-7
1.026608E7 ; 2.82532E-7
1.026683E7 ; 2.824358E-7
1.027097E7 ; 2.81905E-7
1.027455E7 ; 2.814459E-7
1.027498E7 ; 2.813908E-7
1.027886E7 ; 2.808933E-7
1.028091E7 ; 2.806304E-7
1.028262E7 ; 2.804111E-7
1.028627E7 ; 2.799431E-7
1.028981E7 ; 2.794892E-7
1.029045E7 ; 2.794071E-7
1.029323E7 ; 2.790506E-7
1.029655E7 ; 2.786249E-7
1.029952E7 ; 2.782441E-7
1.029977E7 ; 2.78212E-7
1.03E7 ; 2.781825E-7
1.030289E7 ; 2.778119E-7
1.030591E7 ; 2.774247E-7
1.030884E7 ; 2.77049E-7
1.031167E7 ; 2.766861E-7
1.031245E7 ; 2.765861E-7
1.031442E7 ; 2.763335E-7
1.031709E7 ; 2.759911E-7
1.031967E7 ; 2.756603E-7
1.032217E7 ; 2.753397E-7
1.032335E7 ; 2.751884E-7
1.032459E7 ; 2.750294E-7
1.032694E7 ; 2.747281E-7
1.032921E7 ; 2.74437E-7
1.03329E7 ; 2.739638E-7
1.033362E7 ; 2.738715E-7
1.033776E7 ; 2.733406E-7
1.034127E7 ; 2.728906E-7
1.034164E7 ; 2.728431E-7
1.034528E7 ; 2.723764E-7
1.034859E7 ; 2.719519E-7
1.034869E7 ; 2.719391E-7
1.035E7 ; 2.717711E-7
1.035189E7 ; 2.715288E-7
1.035489E7 ; 2.711441E-7
1.0355E7 ; 2.7113E-7
1.03577E7 ; 2.707838E-7
1.036034E7 ; 2.704453E-7
1.036282E7 ; 2.701273E-7
1.036514E7 ; 2.698298E-7
1.036623E7 ; 2.6969E-7
1.036949E7 ; 2.69272E-7
1.03733E7 ; 2.687834E-7
1.037466E7 ; 2.686091E-7
1.037663E7 ; 2.683564E-7
1.037955E7 ; 2.67982E-7
1.03821E7 ; 2.67655E-7
1.038657E7 ; 2.670819E-7
1.038732E7 ; 2.669857E-7
1.038993E7 ; 2.66651E-7
1.039245E7 ; 2.663279E-7
1.039622E7 ; 2.658445E-7
1.04E7 ; 2.653598E-7
1.04031E7 ; 2.649623E-7
1.040614E7 ; 2.645724E-7
1.040915E7 ; 2.641865E-7
1.04121E7 ; 2.638082E-7
1.041245E7 ; 2.637633E-7
1.041501E7 ; 2.634351E-7
1.041788E7 ; 2.630671E-7
1.04207E7 ; 2.627055E-7
1.042335E7 ; 2.623656E-7
1.042348E7 ; 2.62349E-7
1.042895E7 ; 2.616476E-7
1.04329E7 ; 2.611411E-7
1.0434E7 ; 2.61E-7
1.043425E7 ; 2.60968E-7
1.043939E7 ; 2.603089E-7
1.044127E7 ; 2.600678E-7
1.044437E7 ; 2.596703E-7
1.044859E7 ; 2.591292E-7
1.04492E7 ; 2.59051E-7
1.045E7 ; 2.589484E-7
1.045388E7 ; 2.584509E-7
1.045842E7 ; 2.578687E-7
1.046142E7 ; 2.57484E-7
1.046281E7 ; 2.573058E-7
1.046707E7 ; 2.567595E-7
1.047105E7 ; 2.562492E-7
1.04712E7 ; 2.5623E-7
1.04752E7 ; 2.55717E-7
1.047828E7 ; 2.553221E-7
1.047908E7 ; 2.552195E-7
1.048284E7 ; 2.547374E-7
1.048648E7 ; 2.542706E-7
1.048914E7 ; 2.539296E-7
1.049001E7 ; 2.53818E-7
1.049343E7 ; 2.533795E-7
1.049674E7 ; 2.52955E-7
1.049952E7 ; 2.525985E-7
1.049996E7 ; 2.525421E-7
1.05E7 ; 2.52537E-7
1.050307E7 ; 2.524877E-7
1.050608E7 ; 2.524393E-7
1.050901E7 ; 2.523922E-7
1.051184E7 ; 2.523467E-7
1.051245E7 ; 2.523369E-7
1.051733E7 ; 2.522584E-7
1.052247E7 ; 2.521758E-7
1.052335E7 ; 2.521617E-7
1.05273E7 ; 2.520982E-7
1.053183E7 ; 2.520254E-7
1.05329E7 ; 2.520082E-7
1.053608E7 ; 2.519571E-7
1.054006E7 ; 2.518931E-7
1.05438E7 ; 2.51833E-7
1.05473E7 ; 2.517767E-7
1.054964E7 ; 2.517391E-7
1.055E7 ; 2.517333E-7
1.055059E7 ; 2.517238E-7
1.055367E7 ; 2.516743E-7
1.055656E7 ; 2.516279E-7
1.056198E7 ; 2.515407E-7
1.056221E7 ; 2.51537E-7
1.056673E7 ; 2.514644E-7
1.057088E7 ; 2.513977E-7
1.057164E7 ; 2.513855E-7
1.057451E7 ; 2.513393E-7
1.05777E7 ; 2.512881E-7
1.058327E7 ; 2.511985E-7
1.058581E7 ; 2.511577E-7
1.058745E7 ; 2.511313E-7
1.059059E7 ; 2.510809E-7
1.059529E7 ; 2.510053E-7
1.06E7 ; 2.509296E-7
1.060619E7 ; 2.508301E-7
1.06122E7 ; 2.507335E-7
1.061245E7 ; 2.507295E-7
1.061802E7 ; 2.506399E-7
1.062335E7 ; 2.505543E-7
1.062366E7 ; 2.505493E-7
1.062912E7 ; 2.504615E-7
1.063442E7 ; 2.503763E-7
1.063956E7 ; 2.502937E-7
1.064246E7 ; 2.502471E-7
1.064454E7 ; 2.502137E-7
1.064936E7 ; 2.501362E-7
1.065E7 ; 2.501259E-7
1.065404E7 ; 2.50061E-7
1.065682E7 ; 2.500163E-7
1.065857E7 ; 2.499881E-7
1.066296E7 ; 2.499176E-7
1.066721E7 ; 2.498493E-7
1.06676E7 ; 2.49843E-7
1.067547E7 ; 2.497165E-7
1.068321E7 ; 2.495921E-7
1.068379E7 ; 2.495828E-7
1.069047E7 ; 2.494754E-7
1.069728E7 ; 2.493659E-7
1.07E7 ; 2.493222E-7
1.070367E7 ; 2.492632E-7
1.070967E7 ; 2.491668E-7
1.071529E7 ; 2.490764E-7
1.072057E7 ; 2.489916E-7
1.072491E7 ; 2.489218E-7
1.072551E7 ; 2.489122E-7
1.073015E7 ; 2.488376E-7
1.073451E7 ; 2.487675E-7
1.074267E7 ; 2.486363E-7
1.074364E7 ; 2.486207E-7
1.074982E7 ; 2.485214E-7
1.075E7 ; 2.485185E-7
1.075608E7 ; 2.484208E-7
1.07577E7 ; 2.483947E-7
1.076156E7 ; 2.483327E-7
1.076636E7 ; 2.482555E-7
1.077476E7 ; 2.481205E-7
1.077883E7 ; 2.480551E-7
1.078106E7 ; 2.480192E-7
1.07858E7 ; 2.479431E-7
1.07929E7 ; 2.478289E-7
1.08E7 ; 2.477148E-7
1.08062E7 ; 2.476151E-7
1.08122E7 ; 2.475187E-7
1.081239E7 ; 2.475156E-7
1.081802E7 ; 2.474251E-7
1.082366E7 ; 2.473345E-7
1.082402E7 ; 2.473287E-7
1.082491E7 ; 2.473144E-7
1.082913E7 ; 2.472466E-7
1.083443E7 ; 2.471614E-7
1.083956E7 ; 2.470789E-7
1.084454E7 ; 2.469989E-7
1.084587E7 ; 2.469775E-7
1.084937E7 ; 2.469212E-7
1.085E7 ; 2.469111E-7
1.085404E7 ; 2.468462E-7
1.086239E7 ; 2.467119E-7
1.086311E7 ; 2.467004E-7
1.086501E7 ; 2.466698E-7
1.087161E7 ; 2.465637E-7
1.087959E7 ; 2.464355E-7
1.08818E7 ; 2.463999E-7
1.088708E7 ; 2.463151E-7
1.08941E7 ; 2.462022E-7
1.08965E7 ; 2.461637E-7
1.09E7 ; 2.461074E-7
1.090069E7 ; 2.460963E-7
1.090687E7 ; 2.45997E-7
1.090939E7 ; 2.459565E-7
1.091267E7 ; 2.459037E-7
1.091811E7 ; 2.458163E-7
1.092321E7 ; 2.457343E-7
1.092799E7 ; 2.456575E-7
1.093197E7 ; 2.455935E-7
1.093697E7 ; 2.455131E-7
1.094483E7 ; 2.453868E-7
1.094894E7 ; 2.453207E-7
1.094989E7 ; 2.453055E-7
1.095E7 ; 2.453037E-7
1.095171E7 ; 2.452762E-7
1.095773E7 ; 2.451794E-7
1.096168E7 ; 2.45116E-7
1.096301E7 ; 2.450946E-7
1.097224E7 ; 2.449462E-7
1.097918E7 ; 2.448347E-7
1.098082E7 ; 2.448083E-7
1.098438E7 ; 2.447511E-7
1.099219E7 ; 2.446255E-7
1.1E7 ; 2.445E-7
1.10062E7 ; 2.444442E-7
1.10122E7 ; 2.443902E-7
1.101802E7 ; 2.443378E-7
1.102366E7 ; 2.442871E-7
1.102913E7 ; 2.442378E-7
1.103443E7 ; 2.441901E-7
1.104471E7 ; 2.440976E-7
1.105E7 ; 2.4405E-7
1.105435E7 ; 2.440109E-7
1.10634E7 ; 2.439294E-7
1.107189E7 ; 2.43853E-7
1.107985E7 ; 2.437814E-7
1.108732E7 ; 2.437141E-7
1.109433E7 ; 2.43651E-7
1.11E7 ; 2.436E-7
1.110091E7 ; 2.435918E-7
1.110707E7 ; 2.435364E-7
1.111286E7 ; 2.434843E-7
1.111829E7 ; 2.434354E-7
1.112847E7 ; 2.433438E-7
1.113738E7 ; 2.432636E-7
1.114519E7 ; 2.431933E-7
1.115E7 ; 2.4315E-7
1.115203E7 ; 2.431317E-7
1.115801E7 ; 2.430779E-7
1.116325E7 ; 2.430308E-7
1.117243E7 ; 2.429481E-7
1.117932E7 ; 2.428861E-7
1.118965E7 ; 2.427932E-7
1.12E7 ; 2.427E-7
1.12062E7 ; 2.426442E-7
1.12122E7 ; 2.425902E-7
1.122385E7 ; 2.424854E-7
1.123478E7 ; 2.42387E-7
1.124503E7 ; 2.422947E-7
1.125E7 ; 2.4225E-7
1.125466E7 ; 2.422081E-7
1.126369E7 ; 2.421268E-7
1.127216E7 ; 2.420506E-7
1.128011E7 ; 2.41979E-7
1.128756E7 ; 2.41912E-7
1.129456E7 ; 2.41849E-7
1.13E7 ; 2.418E-7
1.130112E7 ; 2.417899E-7
1.130727E7 ; 2.417346E-7
1.131882E7 ; 2.416306E-7
1.132894E7 ; 2.415395E-7
1.13378E7 ; 2.414598E-7
1.134555E7 ; 2.413901E-7
1.135E7 ; 2.4135E-7
1.135235E7 ; 2.413289E-7
1.136424E7 ; 2.412218E-7
1.137317E7 ; 2.411415E-7
1.137987E7 ; 2.410812E-7
1.138993E7 ; 2.409906E-7
1.14E7 ; 2.409E-7
1.14124E7 ; 2.407884E-7
1.142403E7 ; 2.406837E-7
1.143495E7 ; 2.405855E-7
1.14452E7 ; 2.404932E-7
1.145E7 ; 2.4045E-7
1.145481E7 ; 2.404067E-7
1.146384E7 ; 2.403254E-7
1.14723E7 ; 2.402493E-7
1.148024E7 ; 2.401778E-7
1.148769E7 ; 2.401108E-7
1.15E7 ; 2.4E-7
1.150167E7 ; 2.399833E-7
1.151391E7 ; 2.398609E-7
1.152464E7 ; 2.397536E-7
1.153403E7 ; 2.396597E-7
1.154226E7 ; 2.395774E-7
1.155E7 ; 2.395E-7
1.155667E7 ; 2.394333E-7
1.156748E7 ; 2.393252E-7
1.157561E7 ; 2.392439E-7
1.15878E7 ; 2.39122E-7
1.16E7 ; 2.39E-7
1.16124E7 ; 2.38876E-7
1.162404E7 ; 2.387596E-7
1.163496E7 ; 2.386504E-7
1.164521E7 ; 2.385479E-7
1.165E7 ; 2.385E-7
1.165482E7 ; 2.384518E-7
1.167287E7 ; 2.382713E-7
1.168869E7 ; 2.381131E-7
1.17E7 ; 2.38E-7
1.170254E7 ; 2.379746E-7
1.17062E7 ; 2.37938E-7
1.170621E7 ; 2.379379E-7
1.171468E7 ; 2.378532E-7
1.172531E7 ; 2.377469E-7
1.174394E7 ; 2.375606E-7
1.175E7 ; 2.375E-7
1.175793E7 ; 2.374207E-7
1.176843E7 ; 2.373157E-7
1.178421E7 ; 2.371579E-7
1.18E7 ; 2.37E-7
1.180155E7 ; 2.369845E-7
1.180309E7 ; 2.369691E-7
1.180614E7 ; 2.369386E-7
1.180914E7 ; 2.369086E-7
1.18121E7 ; 2.36879E-7
1.181502E7 ; 2.368498E-7
1.181788E7 ; 2.368212E-7
1.182071E7 ; 2.367929E-7
1.182349E7 ; 2.367651E-7
1.182482E7 ; 2.367518E-7
1.182623E7 ; 2.367377E-7
1.182892E7 ; 2.367108E-7
1.183158E7 ; 2.366842E-7
1.183419E7 ; 2.366581E-7
1.183676E7 ; 2.366324E-7
1.18393E7 ; 2.36607E-7
1.184179E7 ; 2.365821E-7
1.184425E7 ; 2.365575E-7
1.184657E7 ; 2.365343E-7
1.184667E7 ; 2.365333E-7
1.184905E7 ; 2.365095E-7
1.185E7 ; 2.365E-7
1.185139E7 ; 2.364861E-7
1.18537E7 ; 2.36463E-7
1.185597E7 ; 2.364403E-7
1.185821E7 ; 2.364179E-7
1.186041E7 ; 2.363959E-7
1.186258E7 ; 2.363742E-7
1.186471E7 ; 2.363529E-7
1.186564E7 ; 2.363436E-7
1.186682E7 ; 2.363318E-7
1.186889E7 ; 2.363111E-7
1.187092E7 ; 2.362908E-7
1.187293E7 ; 2.362707E-7
1.18749E7 ; 2.36251E-7
1.187685E7 ; 2.362315E-7
1.187876E7 ; 2.362124E-7
1.188065E7 ; 2.361935E-7
1.188236E7 ; 2.361764E-7
1.18825E7 ; 2.36175E-7
1.188433E7 ; 2.361567E-7
1.188613E7 ; 2.361387E-7
1.18879E7 ; 2.36121E-7
1.188964E7 ; 2.361036E-7
1.189136E7 ; 2.360864E-7
1.189305E7 ; 2.360695E-7
1.189471E7 ; 2.360529E-7
1.189635E7 ; 2.360365E-7
1.1897E7 ; 2.3603E-7
1.189796E7 ; 2.360204E-7
1.189955E7 ; 2.360045E-7
1.19E7 ; 2.36E-7
1.190112E7 ; 2.359888E-7
1.190419E7 ; 2.359581E-7
1.190718E7 ; 2.359282E-7
1.191007E7 ; 2.358993E-7
1.191287E7 ; 2.358713E-7
1.191558E7 ; 2.358442E-7
1.191821E7 ; 2.358179E-7
1.192076E7 ; 2.357924E-7
1.192267E7 ; 2.357733E-7
1.192322E7 ; 2.357678E-7
1.192562E7 ; 2.357438E-7
1.192793E7 ; 2.357207E-7
1.193018E7 ; 2.356982E-7
1.193235E7 ; 2.356765E-7
1.193446E7 ; 2.356554E-7
1.193651E7 ; 2.356349E-7
1.193848E7 ; 2.356152E-7
1.19404E7 ; 2.35596E-7
1.194195E7 ; 2.355805E-7
1.194226E7 ; 2.355774E-7
1.194406E7 ; 2.355594E-7
1.19458E7 ; 2.35542E-7
1.194749E7 ; 2.355251E-7
1.194913E7 ; 2.355087E-7
1.195E7 ; 2.355E-7
1.195072E7 ; 2.354928E-7
1.195379E7 ; 2.354621E-7
1.195644E7 ; 2.354356E-7
1.195668E7 ; 2.354332E-7
1.195938E7 ; 2.354062E-7
1.196191E7 ; 2.353809E-7
1.196429E7 ; 2.353571E-7
1.196652E7 ; 2.353348E-7
1.196861E7 ; 2.353139E-7
1.197057E7 ; 2.352943E-7
1.197241E7 ; 2.352759E-7
1.197413E7 ; 2.352587E-7
1.197574E7 ; 2.352426E-7
1.19782E7 ; 2.35218E-7
1.197877E7 ; 2.352123E-7
1.198142E7 ; 2.351858E-7
1.198375E7 ; 2.351625E-7
1.198578E7 ; 2.351422E-7
1.198755E7 ; 2.351245E-7
1.198911E7 ; 2.351089E-7
1.199183E7 ; 2.350817E-7
1.199387E7 ; 2.350613E-7
1.199694E7 ; 2.350306E-7
1.2E7 ; 2.35E-7
1.20124E7 ; 2.34876E-7
1.202482E7 ; 2.347518E-7
1.203569E7 ; 2.346431E-7
1.204658E7 ; 2.345342E-7
1.2055E7 ; 2.3445E-7
1.205611E7 ; 2.344389E-7
1.2074E7 ; 2.3426E-7
1.208475E7 ; 2.341525E-7
1.208968E7 ; 2.341032E-7
1.210342E7 ; 2.339658E-7
1.211346E7 ; 2.338654E-7
1.212749E7 ; 2.337251E-7
1.213504E7 ; 2.336496E-7
1.214558E7 ; 2.335442E-7
1.215916E7 ; 2.334084E-7
1.216748E7 ; 2.333252E-7
1.217956E7 ; 2.332044E-7
1.22E7 ; 2.33E-7
1.222482E7 ; 2.327518E-7
1.224658E7 ; 2.325342E-7
1.22567E7 ; 2.32433E-7
1.225671E7 ; 2.324329E-7
1.226566E7 ; 2.323434E-7
1.226838E7 ; 2.323162E-7
1.228237E7 ; 2.321763E-7
1.230116E7 ; 2.319884E-7
1.231167E7 ; 2.318833E-7
1.23337E7 ; 2.31663E-7
1.235024E7 ; 2.314976E-7
1.235048E7 ; 2.314952E-7
1.237509E7 ; 2.312491E-7
1.24E7 ; 2.31E-7
1.24062E7 ; 2.30938E-7
1.241221E7 ; 2.308779E-7
1.241804E7 ; 2.308196E-7
1.242369E7 ; 2.307631E-7
1.242483E7 ; 2.307517E-7
1.242916E7 ; 2.307084E-7
1.243446E7 ; 2.306554E-7
1.24396E7 ; 2.30604E-7
1.244458E7 ; 2.305542E-7
1.244659E7 ; 2.305341E-7
1.244941E7 ; 2.305059E-7
1.24497E7 ; 2.30503E-7
1.245409E7 ; 2.304591E-7
1.246316E7 ; 2.303684E-7
1.247167E7 ; 2.302833E-7
1.247965E7 ; 2.302035E-7
1.248477E7 ; 2.301523E-7
1.248711E7 ; 2.301289E-7
1.248714E7 ; 2.301286E-7
1.249416E7 ; 2.300584E-7
1.25E7 ; 2.3E-7
1.250075E7 ; 2.299925E-7
1.25036E7 ; 2.29964E-7
1.250693E7 ; 2.299307E-7
1.251273E7 ; 2.298727E-7
1.251348E7 ; 2.298652E-7
1.251816E7 ; 2.298184E-7
1.252326E7 ; 2.297674E-7
1.252805E7 ; 2.297195E-7
1.253505E7 ; 2.296495E-7
1.253702E7 ; 2.296298E-7
1.254343E7 ; 2.295657E-7
1.254487E7 ; 2.295513E-7
1.255175E7 ; 2.294825E-7
1.255777E7 ; 2.294223E-7
1.256304E7 ; 2.293696E-7
1.256748E7 ; 2.293252E-7
1.256766E7 ; 2.293234E-7
1.257573E7 ; 2.292427E-7
1.25818E7 ; 2.29182E-7
1.25909E7 ; 2.29091E-7
1.26E7 ; 2.29E-7
1.260155E7 ; 2.289845E-7
1.260309E7 ; 2.289691E-7
1.260462E7 ; 2.289538E-7
1.260613E7 ; 2.289387E-7
1.26062E7 ; 2.28938E-7
1.260763E7 ; 2.289237E-7
1.260913E7 ; 2.289087E-7
1.261061E7 ; 2.288939E-7
1.261207E7 ; 2.288793E-7
1.261221E7 ; 2.288779E-7
1.261353E7 ; 2.288647E-7
1.261498E7 ; 2.288502E-7
1.261641E7 ; 2.288359E-7
1.261784E7 ; 2.288216E-7
1.261804E7 ; 2.288196E-7
1.261925E7 ; 2.288075E-7
1.262205E7 ; 2.287795E-7
1.262369E7 ; 2.287631E-7
1.262482E7 ; 2.287518E-7
1.262753E7 ; 2.287247E-7
1.262916E7 ; 2.287084E-7
1.263021E7 ; 2.286979E-7
1.263285E7 ; 2.286715E-7
1.263446E7 ; 2.286554E-7
1.263544E7 ; 2.286456E-7
1.2638E7 ; 2.2862E-7
1.263961E7 ; 2.286039E-7
1.264051E7 ; 2.285949E-7
1.264299E7 ; 2.285701E-7
1.264459E7 ; 2.285541E-7
1.264543E7 ; 2.285457E-7
1.264783E7 ; 2.285217E-7
1.264971E7 ; 2.285029E-7
1.265019E7 ; 2.284981E-7
1.265252E7 ; 2.284748E-7
1.265424E7 ; 2.284576E-7
1.265481E7 ; 2.284519E-7
1.265707E7 ; 2.284293E-7
1.265929E7 ; 2.284071E-7
1.266147E7 ; 2.283853E-7
1.266331E7 ; 2.283669E-7
1.266363E7 ; 2.283637E-7
1.266575E7 ; 2.283425E-7
1.266783E7 ; 2.283217E-7
1.266989E7 ; 2.283011E-7
1.267181E7 ; 2.282819E-7
1.267191E7 ; 2.282809E-7
1.26739E7 ; 2.28261E-7
1.267586E7 ; 2.282414E-7
1.267779E7 ; 2.282221E-7
1.267969E7 ; 2.282031E-7
1.267978E7 ; 2.282022E-7
1.268156E7 ; 2.281844E-7
1.268341E7 ; 2.281659E-7
1.268522E7 ; 2.281478E-7
1.268701E7 ; 2.281299E-7
1.268711E7 ; 2.281289E-7
1.268726E7 ; 2.281274E-7
1.268876E7 ; 2.281124E-7
1.269049E7 ; 2.280951E-7
1.26922E7 ; 2.28078E-7
1.269388E7 ; 2.280612E-7
1.269428E7 ; 2.280572E-7
1.269553E7 ; 2.280447E-7
1.269715E7 ; 2.280285E-7
1.269875E7 ; 2.280125E-7
1.270033E7 ; 2.279967E-7
1.270086E7 ; 2.279914E-7
1.270188E7 ; 2.279812E-7
1.270341E7 ; 2.279659E-7
1.270491E7 ; 2.279509E-7
1.270639E7 ; 2.279361E-7
1.270703E7 ; 2.279297E-7
1.270785E7 ; 2.279215E-7
1.270928E7 ; 2.279072E-7
1.271211E7 ; 2.278789E-7
1.271282E7 ; 2.278718E-7
1.271485E7 ; 2.278515E-7
1.27175E7 ; 2.27825E-7
1.271826E7 ; 2.278174E-7
1.272007E7 ; 2.277993E-7
1.272256E7 ; 2.277744E-7
1.272335E7 ; 2.277665E-7
1.272463E7 ; 2.277537E-7
1.272497E7 ; 2.277503E-7
1.272731E7 ; 2.277269E-7
1.272958E7 ; 2.277042E-7
1.273177E7 ; 2.276823E-7
1.273291E7 ; 2.276709E-7
1.27339E7 ; 2.27661E-7
1.273596E7 ; 2.276404E-7
1.273795E7 ; 2.276205E-7
1.273989E7 ; 2.276011E-7
1.274127E7 ; 2.275873E-7
1.274176E7 ; 2.275824E-7
1.274343E7 ; 2.275657E-7
1.274358E7 ; 2.275642E-7
1.274534E7 ; 2.275466E-7
1.274704E7 ; 2.275296E-7
1.27486E7 ; 2.27514E-7
1.274869E7 ; 2.275131E-7
1.275029E7 ; 2.274971E-7
1.275185E7 ; 2.274815E-7
1.275335E7 ; 2.274665E-7
1.27548E7 ; 2.27452E-7
1.275501E7 ; 2.274499E-7
1.275762E7 ; 2.274238E-7
1.276027E7 ; 2.273973E-7
1.276063E7 ; 2.273937E-7
1.276275E7 ; 2.273725E-7
1.276507E7 ; 2.273493E-7
1.276725E7 ; 2.273275E-7
1.27693E7 ; 2.27307E-7
1.277046E7 ; 2.272954E-7
1.277121E7 ; 2.272879E-7
1.277301E7 ; 2.272699E-7
1.27747E7 ; 2.27253E-7
1.277628E7 ; 2.272372E-7
1.277776E7 ; 2.272224E-7
1.277784E7 ; 2.272216E-7
1.278054E7 ; 2.271946E-7
1.278297E7 ; 2.271703E-7
1.278338E7 ; 2.271662E-7
1.27851E7 ; 2.27149E-7
1.278696E7 ; 2.271304E-7
1.278859E7 ; 2.271141E-7
1.279144E7 ; 2.270856E-7
1.279169E7 ; 2.270831E-7
1.279358E7 ; 2.270642E-7
1.279518E7 ; 2.270482E-7
1.279759E7 ; 2.270241E-7
1.28E7 ; 2.27E-7
1.28062E7 ; 2.26938E-7
1.281222E7 ; 2.268778E-7
1.281804E7 ; 2.268196E-7
1.282369E7 ; 2.267631E-7
1.282916E7 ; 2.267084E-7
1.283447E7 ; 2.266553E-7
1.283961E7 ; 2.266039E-7
1.283977E7 ; 2.266023E-7
1.284459E7 ; 2.265541E-7
1.284942E7 ; 2.265058E-7
1.284973E7 ; 2.265027E-7
1.28541E7 ; 2.26459E-7
1.285863E7 ; 2.264137E-7
1.285907E7 ; 2.264093E-7
1.286303E7 ; 2.263697E-7
1.286729E7 ; 2.263271E-7
1.286783E7 ; 2.263217E-7
1.287141E7 ; 2.262859E-7
1.287541E7 ; 2.262459E-7
1.287606E7 ; 2.262394E-7
1.287929E7 ; 2.262071E-7
1.288304E7 ; 2.261696E-7
1.288377E7 ; 2.261623E-7
1.288668E7 ; 2.261332E-7
1.289021E7 ; 2.260979E-7
1.2891E7 ; 2.2609E-7
1.289362E7 ; 2.260638E-7
1.289694E7 ; 2.260306E-7
1.289779E7 ; 2.260221E-7
1.289961E7 ; 2.260039E-7
1.290335E7 ; 2.259665E-7
1.290415E7 ; 2.259585E-7
1.290937E7 ; 2.259063E-7
1.291012E7 ; 2.258988E-7
1.291502E7 ; 2.258498E-7
1.291572E7 ; 2.258428E-7
1.292031E7 ; 2.257969E-7
1.292528E7 ; 2.257472E-7
1.292623E7 ; 2.257377E-7
1.292994E7 ; 2.257006E-7
1.29343E7 ; 2.25657E-7
1.293542E7 ; 2.256458E-7
1.29384E7 ; 2.25616E-7
1.294224E7 ; 2.255776E-7
1.294348E7 ; 2.255652E-7
1.294584E7 ; 2.255416E-7
1.294922E7 ; 2.255078E-7
1.295053E7 ; 2.254947E-7
1.295556E7 ; 2.254444E-7
1.29567E7 ; 2.25433E-7
1.296111E7 ; 2.253889E-7
1.296211E7 ; 2.253789E-7
1.296596E7 ; 2.253404E-7
1.297021E7 ; 2.252979E-7
1.297157E7 ; 2.252843E-7
1.297393E7 ; 2.252607E-7
1.297867E7 ; 2.252133E-7
1.298044E7 ; 2.251956E-7
1.298533E7 ; 2.251467E-7
1.2989E7 ; 2.2511E-7
1.298933E7 ; 2.251067E-7
1.29945E7 ; 2.25055E-7
1.3E7 ; 2.25E-7
1.30062E7 ; 2.24938E-7
1.301823E7 ; 2.248177E-7
1.302952E7 ; 2.247048E-7
1.304011E7 ; 2.245989E-7
1.304971E7 ; 2.245029E-7
1.305005E7 ; 2.244995E-7
1.305937E7 ; 2.244063E-7
1.306811E7 ; 2.243189E-7
1.307632E7 ; 2.242368E-7
1.308401E7 ; 2.241599E-7
1.308712E7 ; 2.241288E-7
1.309123E7 ; 2.240877E-7
1.3098E7 ; 2.2402E-7
1.310436E7 ; 2.239564E-7
1.311627E7 ; 2.238373E-7
1.312671E7 ; 2.237329E-7
1.313585E7 ; 2.236415E-7
1.314344E7 ; 2.235656E-7
1.314385E7 ; 2.235615E-7
1.315086E7 ; 2.234914E-7
1.315699E7 ; 2.234301E-7
1.316773E7 ; 2.233227E-7
1.317579E7 ; 2.232421E-7
1.318789E7 ; 2.231211E-7
1.32E7 ; 2.23E-7
1.321241E7 ; 2.228759E-7
1.322406E7 ; 2.227594E-7
1.323499E7 ; 2.226501E-7
1.324524E7 ; 2.225476E-7
1.324972E7 ; 2.225028E-7
1.325486E7 ; 2.224514E-7
1.326389E7 ; 2.223611E-7
1.327235E7 ; 2.222765E-7
1.328029E7 ; 2.221971E-7
1.328775E7 ; 2.221225E-7
1.3288E7 ; 2.2212E-7
1.330173E7 ; 2.219827E-7
1.331397E7 ; 2.218603E-7
1.332465E7 ; 2.217535E-7
1.332469E7 ; 2.217531E-7
1.333408E7 ; 2.216592E-7
1.334231E7 ; 2.215769E-7
1.33495E7 ; 2.21505E-7
1.336211E7 ; 2.213789E-7
1.337157E7 ; 2.212843E-7
1.338578E7 ; 2.211422E-7
1.34E7 ; 2.21E-7
1.341241E7 ; 2.208759E-7
1.342406E7 ; 2.207594E-7
1.343499E7 ; 2.206501E-7
1.344525E7 ; 2.205475E-7
1.345487E7 ; 2.204513E-7
1.346389E7 ; 2.203611E-7
1.348083E7 ; 2.201917E-7
1.349567E7 ; 2.200433E-7
1.349963E7 ; 2.200037E-7
1.35E7 ; 2.2E-7
1.350867E7 ; 2.199133E-7
1.352005E7 ; 2.197995E-7
1.353002E7 ; 2.196998E-7
1.354748E7 ; 2.195252E-7
1.356059E7 ; 2.193941E-7
1.357043E7 ; 2.192957E-7
1.358521E7 ; 2.191479E-7
1.36E7 ; 2.19E-7
1.361242E7 ; 2.188758E-7
1.363572E7 ; 2.186428E-7
1.365615E7 ; 2.184385E-7
1.367405E7 ; 2.182595E-7
1.368973E7 ; 2.181027E-7
1.369964E7 ; 2.180036E-7
1.370347E7 ; 2.179653E-7
1.372754E7 ; 2.177246E-7
1.374562E7 ; 2.175438E-7
1.375919E7 ; 2.174081E-7
1.377958E7 ; 2.172042E-7
1.38E7 ; 2.17E-7
1.382484E7 ; 2.167516E-7
1.384662E7 ; 2.165338E-7
1.388481E7 ; 2.161519E-7
1.391351E7 ; 2.158649E-7
1.393509E7 ; 2.156491E-7
1.396751E7 ; 2.153249E-7
1.4E7 ; 2.15E-7
1.404973E7 ; 2.145027E-7
1.408715E7 ; 2.141285E-7
1.414346E7 ; 2.135654E-7
1.42E7 ; 2.13E-7
1.424974E7 ; 2.125026E-7
1.432467E7 ; 2.117533E-7
1.44E7 ; 2.11E-7
1.4403E7 ; 2.1097E-7
1.444974E7 ; 2.105026E-7
1.45E7 ; 2.1E-7
1.452468E7 ; 2.097127E-7
1.46E7 ; 2.08836E-7
1.469966E7 ; 2.07676E-7
1.48E7 ; 2.06508E-7
1.4855E7 ; 2.058678E-7
1.489966E7 ; 2.05348E-7
1.5E7 ; 2.0418E-7
1.509967E7 ; 2.021449E-7
1.52E7 ; 2.000964E-7
1.529967E7 ; 1.980613E-7
1.54E7 ; 1.960128E-7
1.56E7 ; 1.919292E-7
1.58E7 ; 1.878456E-7
1.5933E7 ; 1.8513E-7
1.6E7 ; 1.83762E-7
1.62E7 ; 1.796784E-7
1.64E7 ; 1.755948E-7
1.6419E7 ; 1.752069E-7
1.66E7 ; 1.715112E-7
1.68E7 ; 1.674276E-7
1.7E7 ; 1.63344E-7
1.72E7 ; 1.592604E-7
1.74E7 ; 1.551768E-7
1.76E7 ; 1.510932E-7
1.78E7 ; 1.470096E-7
1.8E7 ; 1.42926E-7
1.82E7 ; 1.388424E-7
1.84E7 ; 1.347588E-7
1.86E7 ; 1.306752E-7
1.88E7 ; 1.265916E-7
1.9E7 ; 1.22508E-7
1.92E7 ; 1.184244E-7
1.94E7 ; 1.143408E-7
1.96E7 ; 1.102572E-7
1.98E7 ; 1.061736E-7
2.0E7 ; 1.0209E-7
