Incident energy ; 
Incident energy ; 
Incident energy ; σ(E)
940000.0 ; 9.998268E-5
945000.0 ; 0.002931098
945312.5 ; 0.006167533
945625.0 ; 0.009403969
946250.0 ; 0.01587684
947500.0 ; 0.02882258
950000.0 ; 0.05471407
960000.0 ; 0.1582405
980000.0 ; 0.279704
1000000.0 ; 0.36666
1050000.0 ; 0.5308474
1100000.0 ; 0.6817631
1150000.0 ; 0.7975324
1200000.0 ; 0.8754978
1212500.0 ; 0.8923648
1218750.0 ; 0.9007394
1225000.0 ; 0.9083695
1250000.0 ; 0.9388856
1300000.0 ; 0.9789886
1312500.0 ; 0.9873933
1325000.0 ; 0.9957895
1350000.0 ; 1.012578
1395000.0 ; 1.033442
1397987.0 ; 1.034828
1397991.0 ; 1.034832
1397994.0 ; 1.034835
1398000.0 ; 1.034842
1398008.0 ; 1.034852
1398016.0 ; 1.034863
1398032.0 ; 1.034885
1398063.0 ; 1.034929
1398125.0 ; 1.035017
1398250.0 ; 1.035195
1398500.0 ; 1.03555
1399000.0 ; 1.036261
1400000.0 ; 1.037679
1450000.0 ; 1.091489
1476100.0 ; 1.113061
1500000.0 ; 1.130173
1511870.0 ; 1.131873
1511874.0 ; 1.131877
1511892.0 ; 1.131898
1511901.0 ; 1.131912
1511910.0 ; 1.131926
1511928.0 ; 1.131958
1511945.0 ; 1.131989
1511981.0 ; 1.132057
1512016.0 ; 1.132122
1512158.0 ; 1.132388
1512441.0 ; 1.132919
1513007.0 ; 1.133979
1514140.0 ; 1.136102
1516406.0 ; 1.140348
1520937.0 ; 1.148838
1530000.0 ; 1.165811
1600000.0 ; 1.244209
1800000.0 ; 1.36377
1867550.0 ; 1.359432
1867555.0 ; 1.359436
1867587.0 ; 1.359474
1867603.0 ; 1.359499
1867619.0 ; 1.359526
1867682.0 ; 1.359637
1867809.0 ; 1.359861
1868062.0 ; 1.360307
1868569.0 ; 1.361201
1869583.0 ; 1.36299
1871611.0 ; 1.366568
1875667.0 ; 1.373723
1883778.0 ; 1.388032
1900000.0 ; 1.416636
1950000.0 ; 1.453357
2000000.0 ; 1.490062
2073000.0 ; 1.531221
2089360.0 ; 1.520866
2089363.0 ; 1.520864
2205949.0 ; 1.564456
2205950.0 ; 1.564457
2286000.0 ; 1.669326
2300000.0 ; 1.675118
2365400.0 ; 1.680724
2400000.0 ; 1.708722
2424630.0 ; 1.707482
2424633.0 ; 1.707482
2500000.0 ; 1.733501
2500547.0 ; 1.733306
2500550.0 ; 1.733306
2600000.0 ; 1.753739
2889370.0 ; 1.772445
2900000.0 ; 1.773132
2992490.0 ; 1.763105
3000000.0 ; 1.762291
3200000.0 ; 1.814294
3400000.0 ; 1.781477
3600000.0 ; 1.752782
3800000.0 ; 1.721663
4000000.0 ; 1.693957
4200000.0 ; 1.672604
4400000.0 ; 1.654524
4500000.0 ; 1.646763
4600000.0 ; 1.641199
4800000.0 ; 1.63289
5000000.0 ; 1.629293
5200000.0 ; 1.628231
5400000.0 ; 1.629763
5500000.0 ; 1.632267
5600000.0 ; 1.63427
5800000.0 ; 1.640134
6000000.0 ; 1.646685
6800000.0 ; 1.673078
7000000.0 ; 1.677813
7252740.0 ; 1.682067
7270000.0 ; 1.682358
7574230.0 ; 1.682455
8000000.0 ; 1.68259
8600000.0 ; 1.671034
8729770.0 ; 1.647038
8729771.0 ; 1.647037
8943090.0 ; 1.607592
9000000.0 ; 1.597068
9500000.0 ; 1.358677
1.0E7 ; 1.128007
1.02E7 ; 1.033182
1.1E7 ; 0.7528139
1.16E7 ; 0.6194938
1.2E7 ; 0.5515719
1.24E7 ; 0.4798791
1.3E7 ; 0.4184496
1.35E7 ; 0.3618474
1.4E7 ; 0.3267935
1.42275E7 ; 0.3112726
1.45E7 ; 0.2926817
1.5E7 ; 0.270701
1.6E7 ; 0.2353214
1.60027E7 ; 0.2352464
1.600273E7 ; 0.2352455
1.7E7 ; 0.2075442
1.8E7 ; 0.19216
1.9E7 ; 0.1786746
2.0E7 ; 0.17021
